"hip","con","constellation","constellation_ja","proper","proper_ja","mag","ra","dec"
77338,"Sco","Scorpius","さそり",,,7.85,15.78,-20.46
77360,"Sco","Scorpius","さそり",,,8.00,15.79,-21.23
77369,"Sco","Scorpius","さそり",,,11.01,15.79,-22.08
77394,"Sco","Scorpius","さそり",,,6.98,15.79,-25.98
77399,"Sco","Scorpius","さそり",,,7.15,15.80,-25.21
77405,"Sco","Scorpius","さそり",,,9.38,15.80,-26.53
77406,"Sco","Scorpius","さそり",,,9.18,15.80,-23.35
77407,"Sco","Scorpius","さそり",,,9.73,15.80,-23.37
77427,"Sco","Scorpius","さそり",,,7.68,15.80,-28.78
77428,"Sco","Scorpius","さそり",,,8.78,15.80,-20.39
77435,"Sco","Scorpius","さそり",,,6.71,15.80,-23.83
77449,"Sco","Scorpius","さそり",,,8.27,15.81,-27.58
77457,"Sco","Scorpius","さそり",,,7.96,15.81,-29.48
77521,"Sco","Scorpius","さそり",,,7.71,15.82,-20.77
77531,"Sco","Scorpius","さそり",,,8.69,15.83,-27.88
77537,"Sco","Scorpius","さそり",,,9.96,15.83,-28.31
77539,"Sco","Scorpius","さそり",,,7.63,15.83,-21.49
77543,"Sco","Scorpius","さそり",,,10.47,15.83,-21.58
77545,"Sco","Scorpius","さそり",,,9.23,15.83,-25.15
77552,"Sco","Scorpius","さそり",,,8.75,15.83,-25.40
77569,"Sco","Scorpius","さそり",,,8.94,15.83,-28.70
77576,"Sco","Scorpius","さそり",,,9.43,15.83,-25.53
77585,"Sco","Scorpius","さそり",,,9.08,15.84,-22.87
77601,"Sco","Scorpius","さそり",,,10.12,15.84,-20.71
77606,"Sco","Scorpius","さそり",,,6.58,15.84,-26.28
77610,"Sco","Scorpius","さそり",,,7.46,15.84,-23.25
77611,"Sco","Scorpius","さそり",,,8.29,15.84,-26.52
77617,"Sco","Scorpius","さそり",,,8.76,15.84,-24.00
77635,"Sco","Scorpius","さそり",,,4.63,15.84,-25.75
77642,"Sco","Scorpius","さそり",,,7.69,15.85,-22.62
77664,"Sco","Scorpius","さそり",,,9.34,15.85,-29.68
77677,"Sco","Scorpius","さそり",,,7.70,15.85,-20.58
77698,"Sco","Scorpius","さそり",,,9.58,15.86,-28.74
77719,"Sco","Scorpius","さそり",,,10.13,15.86,-28.21
77736,"Sco","Scorpius","さそり",,,9.49,15.87,-26.31
77754,"Sco","Scorpius","さそり",,,8.02,15.87,-25.01
77766,"Sco","Scorpius","さそり",,,8.24,15.87,-27.09
77802,"Sco","Scorpius","さそり",,,9.83,15.88,-24.90
77815,"Sco","Scorpius","さそり",,,8.42,15.88,-21.97
77820,"Sco","Scorpius","さそり",,,9.05,15.89,-28.98
77821,"Sco","Scorpius","さそり",,,8.63,15.89,-27.69
77840,"Sco","Scorpius","さそり",,,4.59,15.89,-25.32
77858,"Sco","Scorpius","さそり",,,5.38,15.89,-24.53
77859,"Sco","Scorpius","さそり",,,5.41,15.89,-23.97
77895,"Sco","Scorpius","さそり",,,9.60,15.90,-21.56
77900,"Sco","Scorpius","さそり",,,6.15,15.90,-27.33
77905,"Sco","Scorpius","さそり",,,10.05,15.91,-23.94
77908,"Sco","Scorpius","さそり",,,9.20,15.91,-26.00
77909,"Sco","Scorpius","さそり",,,5.87,15.91,-25.24
77911,"Sco","Scorpius","さそり",,,6.86,15.91,-22.76
77920,"Sco","Scorpius","さそり",,,9.90,15.91,-29.73
77925,"Sco","Scorpius","さそり",,,10.39,15.91,-22.91
77943,"Sco","Scorpius","さそり",,,8.70,15.91,-27.90
77948,"Sco","Scorpius","さそり",,,9.06,15.91,-20.79
77953,"Sco","Scorpius","さそり",,,10.04,15.91,-26.73
77955,"Sco","Scorpius","さそり",,,7.75,15.92,-25.77
77960,"Sco","Scorpius","さそり",,,8.40,15.92,-23.36
77984,"Sco","Scorpius","さそり",,,5.63,15.92,-26.26
77988,"Sco","Scorpius","さそり",,,8.07,15.92,-29.19
78002,"Sco","Scorpius","さそり",,,7.33,15.92,-26.74
78006,"Sco","Scorpius","さそり",,,8.04,15.92,-28.36
78008,"Sco","Scorpius","さそり",,,9.40,15.92,-24.68
78031,"Sco","Scorpius","さそり",,,9.15,15.93,-26.76
78041,"Sco","Scorpius","さそり",,,7.62,15.93,-25.93
78054,"Sco","Scorpius","さそり",,,9.94,15.93,-28.20
78082,"Sco","Scorpius","さそり",,,8.51,15.94,-20.43
78083,"Sco","Scorpius","さそり",,,9.32,15.94,-24.33
78099,"Sco","Scorpius","さそり",,,7.74,15.94,-23.18
78103,"Sco","Scorpius","さそり",,,8.66,15.94,-22.22
78104,"Sco","Scorpius","さそり",,,3.87,15.94,-29.21
78123,"Sco","Scorpius","さそり",,,8.82,15.95,-21.58
78129,"Sco","Scorpius","さそり",,,7.13,15.95,-21.48
78130,"Sco","Scorpius","さそり",,,7.29,15.95,-27.64
78168,"Sco","Scorpius","さそり",,,5.84,15.96,-20.98
78183,"Sco","Scorpius","さそり",,,6.77,15.96,-23.52
78191,"Sco","Scorpius","さそり",,,9.76,15.96,-26.97
78227,"Sco","Scorpius","さそり",,,11.76,15.97,-23.83
78233,"Sco","Scorpius","さそり",,,9.06,15.97,-21.40
78245,"Sco","Scorpius","さそり",,,9.04,15.97,-28.30
78246,"Sco","Scorpius","さそり",,,5.43,15.97,-24.83
78251,"Sco","Scorpius","さそり",,,8.96,15.97,-23.90
78253,"Sco","Scorpius","さそり",,,8.83,15.97,-25.48
78265,"Sco","Scorpius","さそり",,,2.89,15.98,-26.11
78316,"Sco","Scorpius","さそり",,,7.02,15.99,-27.01
78330,"Sco","Scorpius","さそり",,,7.34,15.99,-29.63
78374,"Sco","Scorpius","さそり",,,8.93,16.00,-23.20
78381,"Sco","Scorpius","さそり",,,9.67,16.00,-27.52
78385,"Sco","Scorpius","さそり",,,11.04,16.00,-26.17
78386,"Sco","Scorpius","さそり",,,8.71,16.00,-26.17
78401,"Sco","Scorpius","さそり","Dschubba","ジュバ",2.29,16.00,-22.62
78420,"Sco","Scorpius","さそり",,,9.47,16.00,-20.45
78465,"Sco","Scorpius","さそり",,,7.62,16.01,-27.04
78467,"Sco","Scorpius","さそり",,,7.12,16.01,-21.15
78471,"Sco","Scorpius","さそり",,,7.16,16.01,-24.26
78472,"Sco","Scorpius","さそり",,,8.98,16.01,-22.16
78478,"Sco","Scorpius","さそり",,,8.64,16.01,-28.33
78480,"Sco","Scorpius","さそり",,,9.91,16.02,-29.00
78482,"Sco","Scorpius","さそり",,,9.24,16.02,-24.02
78483,"Sco","Scorpius","さそり",,,9.39,16.02,-26.87
78494,"Sco","Scorpius","さそり",,,7.76,16.02,-25.19
78504,"Sco","Scorpius","さそり",,,8.79,16.02,-27.27
78510,"Sco","Scorpius","さそり",,,8.68,16.02,-24.32
78523,"Sco","Scorpius","さそり",,,8.81,16.03,-28.37
78530,"Sco","Scorpius","さそり",,,7.19,16.03,-21.98
78534,"Sco","Scorpius","さそり",,,9.31,16.03,-11.29
78536,"Sco","Scorpius","さそり",,,9.70,16.03,-11.58
78543,"Sco","Scorpius","さそり",,,9.27,16.03,-20.75
78549,"Sco","Scorpius","さそり",,,7.33,16.03,-22.68
78563,"Sco","Scorpius","さそり",,,7.50,16.04,-26.14
78566,"Sco","Scorpius","さそり",,,8.85,16.04,-17.86
78567,"Sco","Scorpius","さそり",,,11.65,16.04,-14.64
78569,"Sco","Scorpius","さそり",,,9.85,16.04,-12.50
78573,"Sco","Scorpius","さそり",,,8.92,16.04,-18.17
78575,"Sco","Scorpius","さそり",,,6.07,16.04,-29.13
78586,"Sco","Scorpius","さそり",,,7.97,16.04,-23.18
78591,"Sco","Scorpius","さそり",,,10.14,16.04,-10.63
78600,"Sco","Scorpius","さそり",,,7.81,16.04,-13.81
78602,"Sco","Scorpius","さそり",,,7.03,16.04,-25.01
78622,"Sco","Scorpius","さそり",,,10.03,16.05,-20.47
78627,"Sco","Scorpius","さそり",,,9.19,16.05,-8.45
78628,"Sco","Scorpius","さそり",,,7.31,16.05,-19.84
78633,"Sco","Scorpius","さそり",,,9.63,16.05,-8.77
78635,"Sco","Scorpius","さそり",,,8.43,16.05,-26.62
78647,"Sco","Scorpius","さそり",,,6.96,16.05,-26.71
78650,"Sco","Scorpius","さそり",,,4.96,16.05,-25.86
78664,"Sco","Scorpius","さそり",,,8.25,16.05,-16.40
78681,"Sco","Scorpius","さそり",,,8.29,16.06,-19.57
78687,"Sco","Scorpius","さそり",,,9.22,16.06,-15.11
78696,"Sco","Scorpius","さそり",,,11.00,16.06,-27.67
78699,"Sco","Scorpius","さそり",,,6.22,16.06,-24.72
78702,"Sco","Scorpius","さそり",,,7.79,16.06,-19.76
78704,"Sco","Scorpius","さそり",,,9.14,16.06,-19.10
78708,"Sco","Scorpius","さそり",,,8.64,16.06,-21.92
78715,"Sco","Scorpius","さそり",,,7.40,16.06,-9.91
78733,"Sco","Scorpius","さそり",,,9.36,16.07,-8.68
78736,"Sco","Scorpius","さそり",,,7.54,16.07,-11.85
78738,"Sco","Scorpius","さそり",,,7.44,16.07,-11.44
78739,"Sco","Scorpius","さそり",,,8.02,16.07,-11.44
78743,"Sco","Scorpius","さそり",,,7.51,16.07,-28.93
78746,"Sco","Scorpius","さそり",,,9.12,16.07,-24.10
78753,"Sco","Scorpius","さそり",,,8.77,16.07,-14.91
78755,"Sco","Scorpius","さそり",,,9.34,16.07,-16.88
78769,"Sco","Scorpius","さそり",,,9.06,16.08,-20.30
78782,"Sco","Scorpius","さそり",,,7.60,16.08,-26.94
78785,"Sco","Scorpius","さそり",,,6.74,16.08,-18.53
78790,"Sco","Scorpius","さそり",,,9.09,16.08,-11.63
78809,"Sco","Scorpius","さそり",,,7.65,16.08,-23.66
78820,"Sco","Scorpius","さそり","Graffias",,2.56,16.09,-19.80
78821,"Sco","Scorpius","さそり",,,4.90,16.09,-19.80
78827,"Sco","Scorpius","さそり",,,8.00,16.09,-26.95
78836,"Sco","Scorpius","さそり",,,9.78,16.09,-18.72
78838,"Sco","Scorpius","さそり",,,9.64,16.09,-12.71
78843,"Sco","Scorpius","さそり",,,7.39,16.09,-20.45
78847,"Sco","Scorpius","さそり",,,7.79,16.09,-21.83
78852,"Sco","Scorpius","さそり",,,9.58,16.09,-10.80
78872,"Sco","Scorpius","さそり",,,9.80,16.10,-21.73
78874,"Sco","Scorpius","さそり",,,7.89,16.10,-8.77
78877,"Sco","Scorpius","さそり",,,5.90,16.10,-23.60
78878,"Sco","Scorpius","さそり",,,8.45,16.10,-12.30
78879,"Sco","Scorpius","さそり",,,8.71,16.10,-15.46
78880,"Sco","Scorpius","さそり",,,8.03,16.10,-13.89
78883,"Sco","Scorpius","さそり",,,9.69,16.10,-10.99
78885,"Sco","Scorpius","さそり",,,8.90,16.10,-19.38
78899,"Sco","Scorpius","さそり",,,8.80,16.10,-12.13
78904,"Sco","Scorpius","さそり",,,8.41,16.10,-24.93
78912,"Sco","Scorpius","さそり",,,9.43,16.10,-27.70
78917,"Sco","Scorpius","さそり",,,8.08,16.10,-14.31
78919,"Sco","Scorpius","さそり",,,9.28,16.11,-26.41
78920,"Sco","Scorpius","さそり",,,9.32,16.11,-22.89
78932,"Sco","Scorpius","さそり",,,9.63,16.11,-9.51
78933,"Sco","Scorpius","さそり",,,3.93,16.11,-20.66
78937,"Sco","Scorpius","さそり",,,7.84,16.11,-21.86
78941,"Sco","Scorpius","さそり",,,8.07,16.11,-16.14
78943,"Sco","Scorpius","さそり",,,8.19,16.11,-27.71
78947,"Sco","Scorpius","さそり",,,9.16,16.11,-22.97
78952,"Sco","Scorpius","さそり",,,9.85,16.11,-29.82
78955,"Sco","Scorpius","さそり",,,6.32,16.11,-14.07
78956,"Sco","Scorpius","さそり",,,7.88,16.11,-16.94
78963,"Sco","Scorpius","さそり",,,8.53,16.12,-27.09
78965,"Sco","Scorpius","さそり",,,9.74,16.12,-10.32
78968,"Sco","Scorpius","さそり",,,7.77,16.12,-17.93
78969,"Sco","Scorpius","さそり",,,10.79,16.12,-14.39
78975,"Sco","Scorpius","さそり",,,9.40,16.12,-17.87
78977,"Sco","Scorpius","さそり",,,8.70,16.12,-22.06
78981,"Sco","Scorpius","さそり",,,7.74,16.12,-13.13
78984,"Sco","Scorpius","さそり",,,8.11,16.12,-18.36
78988,"Sco","Scorpius","さそり",,,9.05,16.12,-28.86
78990,"Sco","Scorpius","さそり",,,4.31,16.12,-20.86
78996,"Sco","Scorpius","さそり",,,8.34,16.12,-23.95
79004,"Sco","Scorpius","さそり",,,8.77,16.12,-29.47
79005,"Sco","Scorpius","さそり",,,5.75,16.12,-12.74
79013,"Sco","Scorpius","さそり",,,8.58,16.12,-15.63
79015,"Sco","Scorpius","さそり",,,9.38,16.12,-16.51
79020,"Sco","Scorpius","さそり",,,7.99,16.12,-21.41
79021,"Sco","Scorpius","さそり",,,8.56,16.12,-11.92
79030,"Sco","Scorpius","さそり",,,8.89,16.13,-19.98
79031,"Sco","Scorpius","さそり",,,6.32,16.13,-24.46
79041,"Sco","Scorpius","さそり",,,8.39,16.13,-13.00
79048,"Sco","Scorpius","さそり",,,7.02,16.13,-18.24
79049,"Sco","Scorpius","さそり",,,7.19,16.13,-27.73
79050,"Sco","Scorpius","さそり",,,5.35,16.13,-26.32
79054,"Sco","Scorpius","さそり",,,9.16,16.13,-23.85
79059,"Sco","Scorpius","さそり",,,7.51,16.13,-13.76
79061,"Sco","Scorpius","さそり",,,8.59,16.13,-17.13
79064,"Sco","Scorpius","さそり",,,8.62,16.13,-25.12
79065,"Sco","Scorpius","さそり",,,9.03,16.13,-34.51
79066,"Sco","Scorpius","さそり",,,8.70,16.14,-13.13
79071,"Sco","Scorpius","さそり",,,6.69,16.14,-10.10
79073,"Sco","Scorpius","さそり",,,8.51,16.14,-28.97
79078,"Sco","Scorpius","さそり",,,9.13,16.14,-31.91
79080,"Sco","Scorpius","さそり",,,7.00,16.14,-39.10
79081,"Sco","Scorpius","さそり",,,6.65,16.14,-39.09
79083,"Sco","Scorpius","さそり",,,8.41,16.14,-20.75
79085,"Sco","Scorpius","さそり",,,11.47,16.14,-20.80
79094,"Sco","Scorpius","さそり",,,9.48,16.14,-16.09
79097,"Sco","Scorpius","さそり",,,8.76,16.14,-25.37
79098,"Sco","Scorpius","さそり",,,5.86,16.14,-23.68
79107,"Sco","Scorpius","さそり",,,10.17,16.14,-15.46
79110,"Sco","Scorpius","さそり",,,9.46,16.14,-8.58
79118,"Sco","Scorpius","さそり",,,9.31,16.14,-36.93
79122,"Sco","Scorpius","さそり",,,7.25,16.15,-9.64
79124,"Sco","Scorpius","さそり",,,7.76,16.15,-18.99
79127,"Sco","Scorpius","さそり",,,8.21,16.15,-30.25
79135,"Sco","Scorpius","さそり",,,8.74,16.15,-10.94
79138,"Sco","Scorpius","さそり",,,7.45,16.15,-32.10
79140,"Sco","Scorpius","さそり",,,9.81,16.15,-26.31
79142,"Sco","Scorpius","さそり",,,9.12,16.15,-29.30
79146,"Sco","Scorpius","さそり",,,9.35,16.15,-21.94
79149,"Sco","Scorpius","さそり",,,8.66,16.15,-35.49
79151,"Sco","Scorpius","さそり",,,9.08,16.15,-39.64
79156,"Sco","Scorpius","さそり",,,8.06,16.15,-19.45
79158,"Sco","Scorpius","さそり",,,8.98,16.15,-35.73
79160,"Sco","Scorpius","さそり",,,7.53,16.15,-12.37
79169,"Sco","Scorpius","さそり",,,7.89,16.15,-17.18
79173,"Sco","Scorpius","さそり",,,6.18,16.15,-32.64
79183,"Sco","Scorpius","さそり",,,10.92,16.16,-38.08
79185,"Sco","Scorpius","さそり",,,7.90,16.16,-27.89
79189,"Sco","Scorpius","さそり",,,8.75,16.16,-33.48
79192,"Sco","Scorpius","さそり",,,8.17,16.16,-26.43
79196,"Sco","Scorpius","さそり",,,8.33,16.16,-11.13
79197,"Sco","Scorpius","さそり",,,8.61,16.16,-41.15
79198,"Sco","Scorpius","さそり",,,8.73,16.16,-31.60
79199,"Sco","Scorpius","さそり",,,5.50,16.16,-33.54
79200,"Sco","Scorpius","さそり",,,7.47,16.16,-12.88
79201,"Sco","Scorpius","さそり",,,8.98,16.16,-31.24
79203,"Sco","Scorpius","さそり",,,6.43,16.16,-18.34
79214,"Sco","Scorpius","さそり",,,7.16,16.16,-35.64
79228,"Sco","Scorpius","さそり",,,9.70,16.16,-11.62
79229,"Sco","Scorpius","さそり",,,6.64,16.16,-24.58
79230,"Sco","Scorpius","さそり",,,7.07,16.16,-40.12
79235,"Sco","Scorpius","さそり",,,6.59,16.17,-26.90
79244,"Sco","Scorpius","さそり",,,7.05,16.17,-22.15
79247,"Sco","Scorpius","さそり",,,8.06,16.17,-29.28
79249,"Sco","Scorpius","さそり",,,8.66,16.17,-30.53
79250,"Sco","Scorpius","さそり",,,7.78,16.17,-23.10
79252,"Sco","Scorpius","さそり",,,9.62,16.17,-22.22
79257,"Sco","Scorpius","さそり",,,8.78,16.17,-33.43
79258,"Sco","Scorpius","さそり",,,9.32,16.17,-32.76
79259,"Sco","Scorpius","さそり",,,8.99,16.17,-36.84
79268,"Sco","Scorpius","さそり",,,8.47,16.17,-24.97
79271,"Sco","Scorpius","さそり",,,10.02,16.17,-13.51
79286,"Sco","Scorpius","さそり",,,9.12,16.18,-20.01
79287,"Sco","Scorpius","さそり",,,9.49,16.18,-12.06
79288,"Sco","Scorpius","さそり",,,8.97,16.18,-25.52
79290,"Sco","Scorpius","さそり",,,9.31,16.18,-40.43
79293,"Sco","Scorpius","さそり",,,8.86,16.18,-20.39
79296,"Sco","Scorpius","さそり",,,8.36,16.18,-14.38
79299,"Sco","Scorpius","さそり",,,9.15,16.18,-36.52
79300,"Sco","Scorpius","さそり",,,10.31,16.18,-21.29
79301,"Sco","Scorpius","さそり",,,8.13,16.18,-25.11
79302,"Sco","Scorpius","さそり",,,5.09,16.18,-29.41
79303,"Sco","Scorpius","さそり",,,7.80,16.18,-13.99
79311,"Sco","Scorpius","さそり",,,7.89,16.18,-40.12
79317,"Sco","Scorpius","さそり",,,8.93,16.18,-37.46
79320,"Sco","Scorpius","さそり",,,5.86,16.18,-41.11
79324,"Sco","Scorpius","さそり",,,9.40,16.18,-11.76
79335,"Sco","Scorpius","さそり",,,10.09,16.19,-21.58
79339,"Sco","Scorpius","さそり",,,8.84,16.19,-11.26
79341,"Sco","Scorpius","さそり",,,9.31,16.19,-18.00
79343,"Sco","Scorpius","さそり",,,6.95,16.19,-27.15
79346,"Sco","Scorpius","さそり",,,8.12,16.19,-27.07
79355,"Sco","Scorpius","さそり",,,8.32,16.19,-32.26
79363,"Sco","Scorpius","さそり",,,7.84,16.19,-27.55
79364,"Sco","Scorpius","さそり",,,7.73,16.19,-25.88
79366,"Sco","Scorpius","さそり",,,8.23,16.19,-22.54
79369,"Sco","Scorpius","さそり",,,8.97,16.19,-21.10
79371,"Sco","Scorpius","さそり",,,8.90,16.19,-10.62
79374,"Sco","Scorpius","さそり",,,4.00,16.19,-19.46
79375,"Sco","Scorpius","さそり",,,4.93,16.19,-10.06
79377,"Sco","Scorpius","さそり",,,7.41,16.20,-18.23
79383,"Sco","Scorpius","さそり",,,9.31,16.20,-23.24
79387,"Sco","Scorpius","さそり",,,5.43,16.20,-8.54
79392,"Sco","Scorpius","さそり",,,8.44,16.20,-23.92
79395,"Sco","Scorpius","さそり",,,9.81,16.20,-16.67
79397,"Sco","Scorpius","さそり",,,9.33,16.20,-26.47
79399,"Sco","Scorpius","さそり",,,5.67,16.20,-28.41
79403,"Sco","Scorpius","さそり",,,8.58,16.20,-29.00
79404,"Sco","Scorpius","さそり",,,4.58,16.20,-27.92
79405,"Sco","Scorpius","さそり",,,10.01,16.20,-14.81
79407,"Sco","Scorpius","さそり",,,8.80,16.20,-13.73
79410,"Sco","Scorpius","さそり",,,7.64,16.20,-19.57
79416,"Sco","Scorpius","さそり",,,8.50,16.20,-10.48
79419,"Sco","Scorpius","さそり",,,9.88,16.20,-38.10
79429,"Sco","Scorpius","さそり",,,7.74,16.21,-39.74
79430,"Sco","Scorpius","さそり",,,8.19,16.21,-30.15
79431,"Sco","Scorpius","さそり",,,11.34,16.21,-18.87
79432,"Sco","Scorpius","さそり",,,11.03,16.21,-13.31
79437,"Sco","Scorpius","さそり",,,8.90,16.21,-28.32
79439,"Sco","Scorpius","さそり",,,7.58,16.21,-19.50
79442,"Sco","Scorpius","さそり",,,9.44,16.21,-26.36
79450,"Sco","Scorpius","さそり",,,9.11,16.21,-16.01
79451,"Sco","Scorpius","さそり",,,7.98,16.21,-28.13
79454,"Sco","Scorpius","さそり",,,9.68,16.21,-30.80
79455,"Sco","Scorpius","さそり",,,9.65,16.21,-12.35
79458,"Sco","Scorpius","さそり",,,10.41,16.21,-34.65
79459,"Sco","Scorpius","さそり",,,9.54,16.21,-33.84
79460,"Sco","Scorpius","さそり",,,9.45,16.21,-8.60
79462,"Sco","Scorpius","さそり",,,9.28,16.21,-23.32
79464,"Sco","Scorpius","さそり",,,8.63,16.21,-36.10
79473,"Sco","Scorpius","さそり",,,8.90,16.21,-29.64
79475,"Sco","Scorpius","さそり",,,7.32,16.21,-15.11
79476,"Sco","Scorpius","さそり",,,8.83,16.21,-22.48
79479,"Sco","Scorpius","さそり",,,7.39,16.22,-34.30
79482,"Sco","Scorpius","さそり",,,10.48,16.22,-36.01
79484,"Sco","Scorpius","さそり",,,10.39,16.22,-15.20
79495,"Sco","Scorpius","さそり",,,10.03,16.22,-39.31
79496,"Sco","Scorpius","さそり",,,7.88,16.22,-32.13
79500,"Sco","Scorpius","さそり",,,9.18,16.22,-15.77
79508,"Sco","Scorpius","さそり",,,9.27,16.22,-33.58
79519,"Sco","Scorpius","さそり",,,8.06,16.22,-13.03
79520,"Sco","Scorpius","さそり",,,7.54,16.22,-29.05
79524,"Sco","Scorpius","さそり",,,6.68,16.22,-21.39
79527,"Sco","Scorpius","さそり",,,7.57,16.22,-9.20
79530,"Sco","Scorpius","さそり",,,6.40,16.22,-24.42
79534,"Sco","Scorpius","さそり",,,8.35,16.23,-24.25
79540,"Sco","Scorpius","さそり",,,5.24,16.23,-11.83
79541,"Sco","Scorpius","さそり",,,7.60,16.23,-30.21
79546,"Sco","Scorpius","さそり",,,8.90,16.23,-26.29
79552,"Sco","Scorpius","さそり",,,7.95,16.23,-28.25
79557,"Sco","Scorpius","さそり",,,7.89,16.23,-23.77
79558,"Sco","Scorpius","さそり",,,9.38,16.23,-8.78
79560,"Sco","Scorpius","さそり",,,8.70,16.23,-16.40
79561,"Sco","Scorpius","さそり",,,9.13,16.23,-11.73
79565,"Sco","Scorpius","さそり",,,8.77,16.23,-18.19
79578,"Sco","Scorpius","さそり",,,6.55,16.23,-31.66
79579,"Sco","Scorpius","さそり",,,9.32,16.23,-17.41
79580,"Sco","Scorpius","さそり",,,8.67,16.23,-18.83
79584,"Sco","Scorpius","さそり",,,9.03,16.23,-14.16
79587,"Sco","Scorpius","さそり",,,8.40,16.23,-16.54
79588,"Sco","Scorpius","さそり",,,7.28,16.23,-10.41
79596,"Sco","Scorpius","さそり",,,5.91,16.23,-33.01
79599,"Sco","Scorpius","さそり",,,6.41,16.24,-21.10
79603,"Sco","Scorpius","さそり",,,9.27,16.24,-31.94
79605,"Sco","Scorpius","さそり",,,6.32,16.24,-18.53
79606,"Sco","Scorpius","さそり",,,9.14,16.24,-20.23
79610,"Sco","Scorpius","さそり",,,9.24,16.24,-38.64
79616,"Sco","Scorpius","さそり",,,9.91,16.24,-33.25
79621,"Sco","Scorpius","さそり",,,7.38,16.24,-22.38
79622,"Sco","Scorpius","さそり",,,6.06,16.24,-25.47
79630,"Sco","Scorpius","さそり",,,8.22,16.24,-32.44
79631,"Sco","Scorpius","さそり",,,7.16,16.24,-39.62
79633,"Sco","Scorpius","さそり",,,8.14,16.24,-14.63
79635,"Sco","Scorpius","さそり",,,10.40,16.25,-42.03
79640,"Sco","Scorpius","さそり",,,9.46,16.25,-40.57
79643,"Sco","Scorpius","さそり",,,9.53,16.25,-23.75
79644,"Sco","Scorpius","さそり",,,10.20,16.25,-22.11
79648,"Sco","Scorpius","さそり",,,8.94,16.25,-12.74
79658,"Sco","Scorpius","さそり",,,7.53,16.25,-27.21
79663,"Sco","Scorpius","さそり",,,7.69,16.25,-11.04
79667,"Sco","Scorpius","さそり",,,7.48,16.25,-12.68
79672,"Sco","Scorpius","さそり",,,5.49,16.26,-8.36
79673,"Sco","Scorpius","さそり",,,8.84,16.26,-41.64
79676,"Sco","Scorpius","さそり",,,9.29,16.26,-22.80
79679,"Sco","Scorpius","さそり",,,9.51,16.26,-15.44
79684,"Sco","Scorpius","さそり",,,7.74,16.26,-25.12
79687,"Sco","Scorpius","さそり",,,7.88,16.26,-15.59
79688,"Sco","Scorpius","さそり",,,8.85,16.26,-29.01
79690,"Sco","Scorpius","さそり",,,8.10,16.26,-20.07
79692,"Sco","Scorpius","さそり",,,6.09,16.26,-14.84
79696,"Sco","Scorpius","さそり",,,7.82,16.26,-15.88
79706,"Sco","Scorpius","さそり",,,7.73,16.26,-30.62
79711,"Sco","Scorpius","さそり",,,9.68,16.26,-14.87
79722,"Sco","Scorpius","さそり",,,9.13,16.27,-29.24
79728,"Sco","Scorpius","さそり",,,8.40,16.27,-23.16
79731,"Sco","Scorpius","さそり",,,9.64,16.27,-30.70
79732,"Sco","Scorpius","さそり",,,8.29,16.27,-18.59
79733,"Sco","Scorpius","さそり",,,9.14,16.27,-28.16
79734,"Sco","Scorpius","さそり",,,8.39,16.27,-25.06
79738,"Sco","Scorpius","さそり",,,9.32,16.27,-32.57
79739,"Sco","Scorpius","さそり",,,7.92,16.27,-24.98
79740,"Sco","Scorpius","さそり",,,6.70,16.27,-24.28
79741,"Sco","Scorpius","さそり",,,9.19,16.27,-36.74
79742,"Sco","Scorpius","さそり",,,9.16,16.27,-38.73
79749,"Sco","Scorpius","さそり",,,8.14,16.27,-10.18
79750,"Sco","Scorpius","さそり",,,9.40,16.27,-18.61
79758,"Sco","Scorpius","さそり",,,9.12,16.27,-36.32
79760,"Sco","Scorpius","さそり",,,9.44,16.27,-12.54
79763,"Sco","Scorpius","さそり",,,8.56,16.27,-8.42
79766,"Sco","Scorpius","さそり",,,10.13,16.28,-11.84
79771,"Sco","Scorpius","さそり",,,8.37,16.28,-25.86
79775,"Sco","Scorpius","さそり",,,7.60,16.28,-29.74
79779,"Sco","Scorpius","さそり",,,8.68,16.28,-23.11
79785,"Sco","Scorpius","さそり",,,6.61,16.28,-21.30
79788,"Sco","Scorpius","さそり",,,6.40,16.28,-20.10
79791,"Sco","Scorpius","さそり",,,9.31,16.28,-9.35
79793,"Sco","Scorpius","さそり",,,9.40,16.28,-33.58
79806,"Sco","Scorpius","さそり",,,8.93,16.28,-24.22
79813,"Sco","Scorpius","さそり",,,7.54,16.28,-15.32
79815,"Sco","Scorpius","さそり",,,9.96,16.28,-26.34
79818,"Sco","Scorpius","さそり",,,8.03,16.29,-34.81
79833,"Sco","Scorpius","さそり",,,8.51,16.29,-29.79
79835,"Sco","Scorpius","さそり",,,7.65,16.29,-37.75
79839,"Sco","Scorpius","さそり",,,8.44,16.29,-21.90
79843,"Sco","Scorpius","さそり",,,7.24,16.29,-13.37
79852,"Sco","Scorpius","さそり",,,7.36,16.29,-13.44
79855,"Sco","Scorpius","さそり",,,8.90,16.30,-34.62
79860,"Sco","Scorpius","さそり",,,8.26,16.30,-31.65
79866,"Sco","Scorpius","さそり",,,9.49,16.30,-40.98
79871,"Sco","Scorpius","さそり",,,9.73,16.30,-39.74
79873,"Sco","Scorpius","さそり",,,9.58,16.30,-31.61
79874,"Sco","Scorpius","さそり",,,7.10,16.30,-34.91
79878,"Sco","Scorpius","さそり",,,7.07,16.30,-28.04
79881,"Sco","Scorpius","さそり",,,4.80,16.30,-28.61
79883,"Sco","Scorpius","さそり",,,8.28,16.30,-32.95
79884,"Sco","Scorpius","さそり",,,7.76,16.30,-36.56
79886,"Sco","Scorpius","さそり",,,10.30,16.30,-41.97
79895,"Sco","Scorpius","さそり",,,7.36,16.30,-17.38
79896,"Sco","Scorpius","さそり",,,9.12,16.30,-34.00
79897,"Sco","Scorpius","さそり",,,7.51,16.30,-23.27
79899,"Sco","Scorpius","さそり",,,9.32,16.30,-11.92
79908,"Sco","Scorpius","さそり",,,9.05,16.31,-38.65
79909,"Sco","Scorpius","さそり",,,8.71,16.31,-35.40
79910,"Sco","Scorpius","さそり",,,9.00,16.31,-21.59
79915,"Sco","Scorpius","さそり",,,9.56,16.31,-11.28
79928,"Sco","Scorpius","さそり",,,9.59,16.31,-10.78
79931,"Sco","Scorpius","さそり",,,9.50,16.31,-22.76
79934,"Sco","Scorpius","さそり",,,8.23,16.31,-9.07
79938,"Sco","Scorpius","さそり",,,5.97,16.31,-14.87
79944,"Sco","Scorpius","さそり",,,10.17,16.31,-41.31
79945,"Sco","Scorpius","さそり",,,6.29,16.31,-20.21
79946,"Sco","Scorpius","さそり",,,7.68,16.31,-28.29
79954,"Sco","Scorpius","さそり",,,8.86,16.31,-30.62
79962,"Sco","Scorpius","さそり",,,6.63,16.32,-35.49
79969,"Sco","Scorpius","さそり",,,8.16,16.32,-25.76
79970,"Sco","Scorpius","さそり",,,8.90,16.32,-40.94
79972,"Sco","Scorpius","さそり",,,8.51,16.32,-15.54
79977,"Sco","Scorpius","さそり",,,9.09,16.32,-21.40
79979,"Sco","Scorpius","さそり",,,7.29,16.32,-30.90
79980,"Sco","Scorpius","さそり",,,5.53,16.32,-30.90
79982,"Sco","Scorpius","さそり",,,8.54,16.32,-29.94
79983,"Sco","Scorpius","さそり",,,9.32,16.32,-36.40
79984,"Sco","Scorpius","さそり",,,7.06,16.32,-18.82
79987,"Sco","Scorpius","さそり",,,10.23,16.32,-26.87
79988,"Sco","Scorpius","さそり",,,9.07,16.32,-12.13
80004,"Sco","Scorpius","さそり",,,8.20,16.33,-14.64
80009,"Sco","Scorpius","さそり",,,8.13,16.33,-20.78
80010,"Sco","Scorpius","さそり",,,8.54,16.33,-39.51
80013,"Sco","Scorpius","さそり",,,7.72,16.33,-40.81
80016,"Sco","Scorpius","さそり",,,8.07,16.33,-9.85
80019,"Sco","Scorpius","さそり",,,8.05,16.33,-20.04
80018,"Sco","Scorpius","さそり",,,10.56,16.33,-37.52
80024,"Sco","Scorpius","さそり",,,7.36,16.33,-20.05
80025,"Sco","Scorpius","さそり",,,8.93,16.33,-36.28
80027,"Sco","Scorpius","さそり",,,9.54,16.33,-25.85
80029,"Sco","Scorpius","さそり",,,10.10,16.33,-23.80
80033,"Sco","Scorpius","さそり",,,9.19,16.33,-38.90
80035,"Sco","Scorpius","さそり",,,6.89,16.33,-39.63
80036,"Sco","Scorpius","さそり",,,9.11,16.33,-28.71
80046,"Sco","Scorpius","さそり",,,9.14,16.33,-41.66
80048,"Sco","Scorpius","さそり",,,8.90,16.33,-13.68
80049,"Sco","Scorpius","さそり",,,8.98,16.33,-25.11
80058,"Sco","Scorpius","さそり",,,10.22,16.34,-11.53
80059,"Sco","Scorpius","さそり",,,8.58,16.34,-21.50
80060,"Sco","Scorpius","さそり",,,6.56,16.34,-12.91
80061,"Sco","Scorpius","さそり",,,7.81,16.34,-18.69
80063,"Sco","Scorpius","さそり",,,7.55,16.34,-20.11
80062,"Sco","Scorpius","さそり",,,8.41,16.34,-20.11
80066,"Sco","Scorpius","さそり",,,6.11,16.34,-39.43
80070,"Sco","Scorpius","さそり",,,7.75,16.34,-29.51
80072,"Sco","Scorpius","さそり",,,8.37,16.34,-17.08
80079,"Sco","Scorpius","さそり",,,4.55,16.34,-24.16
80080,"Sco","Scorpius","さそり",,,9.19,16.34,-33.10
80083,"Sco","Scorpius","さそり",,,11.37,16.34,-17.64
80085,"Sco","Scorpius","さそり",,,6.80,16.34,-21.84
80087,"Sco","Scorpius","さそり",,,9.31,16.34,-12.69
80088,"Sco","Scorpius","さそり",,,9.00,16.34,-22.59
80098,"Sco","Scorpius","さそり",,,9.47,16.35,-30.35
80107,"Sco","Scorpius","さそり",,,9.39,16.35,-12.02
80108,"Sco","Scorpius","さそり",,,9.11,16.35,-31.76
80109,"Sco","Scorpius","さそり",,,8.72,16.35,-19.94
80112,"Sco","Scorpius","さそり",,,2.90,16.35,-25.59
80119,"Sco","Scorpius","さそり",,,8.27,16.35,-30.10
80123,"Sco","Scorpius","さそり",,,8.89,16.35,-27.23
80126,"Sco","Scorpius","さそり",,,7.04,16.35,-23.70
80129,"Sco","Scorpius","さそり",,,8.20,16.35,-13.10
80130,"Sco","Scorpius","さそり",,,8.62,16.35,-22.10
80140,"Sco","Scorpius","さそり",,,7.39,16.35,-33.30
80146,"Sco","Scorpius","さそり",,,8.79,16.35,-39.43
80148,"Sco","Scorpius","さそり",,,7.36,16.35,-33.23
80159,"Sco","Scorpius","さそり",,,8.27,16.36,-10.18
80160,"Sco","Scorpius","さそり",,,7.44,16.36,-42.00
80165,"Sco","Scorpius","さそり",,,9.36,16.36,-18.56
80169,"Sco","Scorpius","さそり",,,10.13,16.36,-21.47
80171,"Sco","Scorpius","さそり",,,8.80,16.36,-24.99
80193,"Sco","Scorpius","さそり",,,7.34,16.37,-8.74
80196,"Sco","Scorpius","さそり",,,9.35,16.37,-24.36
80198,"Sco","Scorpius","さそり",,,8.21,16.37,-31.25
80199,"Sco","Scorpius","さそり",,,9.45,16.37,-32.33
80207,"Sco","Scorpius","さそり",,,8.99,16.37,-34.34
80216,"Sco","Scorpius","さそり",,,9.06,16.37,-32.31
80217,"Sco","Scorpius","さそり",,,9.02,16.37,-12.42
80220,"Sco","Scorpius","さそり",,,8.41,16.37,-33.67
80224,"Sco","Scorpius","さそり",,,8.60,16.37,-24.38
80237,"Sco","Scorpius","さそり",,,8.75,16.38,-30.76
80238,"Sco","Scorpius","さそり",,,7.54,16.38,-23.11
80240,"Sco","Scorpius","さそり",,,6.87,16.38,-17.01
80242,"Sco","Scorpius","さそり",,,9.62,16.38,-31.07
80245,"Sco","Scorpius","さそり",,,9.57,16.38,-31.07
80251,"Sco","Scorpius","さそり",,,9.03,16.38,-40.61
80267,"Sco","Scorpius","さそり",,,6.77,16.38,-37.42
80268,"Sco","Scorpius","さそり",,,10.23,16.38,-24.70
80269,"Sco","Scorpius","さそり",,,9.62,16.38,-18.75
80276,"Sco","Scorpius","さそり",,,9.14,16.38,-21.28
80277,"Sco","Scorpius","さそり",,,7.17,16.38,-34.92
80278,"Sco","Scorpius","さそり",,,8.78,16.38,-34.56
80290,"Sco","Scorpius","さそり",,,9.60,16.38,-26.37
80299,"Sco","Scorpius","さそり",,,9.91,16.39,-34.95
80300,"Sco","Scorpius","さそり",,,11.01,16.39,-39.22
80305,"Sco","Scorpius","さそり",,,7.39,16.39,-41.07
80307,"Sco","Scorpius","さそり",,,7.53,16.39,-41.24
80308,"Sco","Scorpius","さそり",,,9.48,16.39,-40.77
80311,"Sco","Scorpius","さそり",,,8.92,16.39,-26.27
80312,"Sco","Scorpius","さそり",,,8.35,16.39,-36.45
80316,"Sco","Scorpius","さそり",,,7.98,16.39,-30.18
80320,"Sco","Scorpius","さそり",,,9.28,16.39,-29.77
80324,"Sco","Scorpius","さそり",,,6.45,16.39,-33.19
80337,"Sco","Scorpius","さそり",,,5.37,16.40,-39.19
80338,"Sco","Scorpius","さそり",,,9.41,16.40,-25.41
80339,"Sco","Scorpius","さそり",,,9.89,16.40,-31.85
80341,"Sco","Scorpius","さそり",,,8.62,16.40,-32.25
80359,"Sco","Scorpius","さそり",,,9.10,16.40,-35.68
80371,"Sco","Scorpius","さそり",,,8.34,16.40,-25.02
80377,"Sco","Scorpius","さそり",,,9.15,16.40,-25.70
80385,"Sco","Scorpius","さそり",,,9.76,16.40,-30.48
80387,"Sco","Scorpius","さそり",,,7.47,16.40,-27.15
80390,"Sco","Scorpius","さそり",,,5.42,16.40,-37.56
80391,"Sco","Scorpius","さそり",,,7.54,16.40,-35.17
80397,"Sco","Scorpius","さそり",,,9.70,16.41,-42.22
80399,"Sco","Scorpius","さそり",,,5.40,16.41,-29.70
80400,"Sco","Scorpius","さそり",,,8.37,16.41,-26.80
80405,"Sco","Scorpius","さそり",,,7.01,16.41,-34.89
80407,"Sco","Scorpius","さそり",,,9.72,16.41,-38.18
80416,"Sco","Scorpius","さそり",,,9.26,16.41,-36.08
80418,"Sco","Scorpius","さそり",,,9.26,16.41,-40.58
80422,"Sco","Scorpius","さそり",,,8.49,16.41,-38.44
80425,"Sco","Scorpius","さそり",,,8.60,16.41,-25.35
80428,"Sco","Scorpius","さそり",,,9.47,16.41,-41.57
80431,"Sco","Scorpius","さそり",,,7.98,16.41,-36.14
80446,"Sco","Scorpius","さそり",,,8.79,16.42,-27.72
80475,"Sco","Scorpius","さそり",,,7.40,16.42,-32.07
80478,"Sco","Scorpius","さそり",,,7.66,16.42,-29.40
80486,"Sco","Scorpius","さそり",,,7.96,16.42,-33.56
80490,"Sco","Scorpius","さそり",,,7.61,16.43,-29.91
80491,"Sco","Scorpius","さそり",,,9.19,16.43,-27.81
80493,"Sco","Scorpius","さそり",,,8.08,16.43,-26.56
80497,"Sco","Scorpius","さそり",,,8.90,16.43,-30.44
80504,"Sco","Scorpius","さそり",,,8.34,16.43,-31.23
80511,"Sco","Scorpius","さそり",,,8.16,16.43,-34.98
80518,"Sco","Scorpius","さそり",,,8.95,16.43,-34.94
80535,"Sco","Scorpius","さそり",,,8.63,16.44,-27.68
80544,"Sco","Scorpius","さそり",,,9.54,16.44,-19.13
80552,"Sco","Scorpius","さそり",,,9.16,16.44,-33.07
80556,"Sco","Scorpius","さそり",,,9.27,16.44,-31.23
80565,"Sco","Scorpius","さそり",,,9.46,16.44,-27.13
80574,"Sco","Scorpius","さそり",,,9.49,16.45,-40.55
80586,"Sco","Scorpius","さそり",,,8.20,16.45,-27.18
80591,"Sco","Scorpius","さそり",,,8.33,16.45,-39.82
80593,"Sco","Scorpius","さそり",,,9.42,16.45,-39.31
80603,"Sco","Scorpius","さそり",,,8.60,16.45,-37.47
80607,"Sco","Scorpius","さそり",,,7.01,16.45,-29.28
80609,"Sco","Scorpius","さそり",,,9.61,16.45,-25.15
80629,"Sco","Scorpius","さそり",,,8.12,16.46,-41.30
80636,"Sco","Scorpius","さそり",,,9.37,16.46,-35.78
80653,"Sco","Scorpius","さそり",,,9.60,16.46,-40.95
80672,"Sco","Scorpius","さそり",,,5.79,16.47,-37.17
80673,"Sco","Scorpius","さそり",,,6.97,16.47,-25.45
80683,"Sco","Scorpius","さそり",,,8.70,16.47,-31.13
80699,"Sco","Scorpius","さそり",,,9.50,16.47,-32.64
80702,"Sco","Scorpius","さそり",,,8.95,16.47,-38.37
80714,"Sco","Scorpius","さそり",,,7.89,16.47,-35.69
80716,"Sco","Scorpius","さそり",,,9.15,16.48,-34.56
80732,"Sco","Scorpius","さそり",,,9.18,16.48,-37.17
80735,"Sco","Scorpius","さそり",,,9.97,16.48,-29.04
80746,"Sco","Scorpius","さそり",,,9.19,16.48,-41.62
80750,"Sco","Scorpius","さそり",,,8.65,16.48,-35.47
80753,"Sco","Scorpius","さそり",,,9.60,16.48,-27.37
80758,"Sco","Scorpius","さそり",,,9.77,16.48,-30.96
80759,"Sco","Scorpius","さそり",,,9.28,16.48,-42.03
80763,"Sco","Scorpius","さそり","Antares","アンタレス",1.06,16.49,-26.43
80770,"Sco","Scorpius","さそり",,,7.51,16.49,-33.32
80778,"Sco","Scorpius","さそり",,,9.82,16.49,-27.57
80779,"Sco","Scorpius","さそり",,,9.80,16.49,-30.07
80784,"Sco","Scorpius","さそり",,,7.93,16.49,-18.68
80792,"Sco","Scorpius","さそり",,,8.70,16.49,-41.07
80799,"Sco","Scorpius","さそり",,,7.82,16.49,-24.97
80804,"Sco","Scorpius","さそり",,,7.34,16.49,-25.14
80813,"Sco","Scorpius","さそり",,,8.44,16.50,-34.12
80815,"Sco","Scorpius","さそり",,,4.79,16.50,-25.11
80819,"Sco","Scorpius","さそり",,,6.89,16.50,-27.91
80829,"Sco","Scorpius","さそり",,,7.72,16.50,-37.97
80844,"Sco","Scorpius","さそり",,,8.64,16.50,-25.47
80846,"Sco","Scorpius","さそり",,,7.79,16.50,-27.17
80849,"Sco","Scorpius","さそり",,,9.88,16.51,-38.35
80859,"Sco","Scorpius","さそり",,,7.78,16.51,-29.48
80870,"Sco","Scorpius","さそり",,,10.10,16.51,-28.33
80868,"Sco","Scorpius","さそり",,,10.19,16.51,-28.33
80875,"Sco","Scorpius","さそり",,,8.89,16.51,-33.33
80895,"Sco","Scorpius","さそり",,,6.94,16.51,-34.33
80896,"Sco","Scorpius","さそり",,,8.53,16.51,-29.99
80897,"Sco","Scorpius","さそり",,,8.56,16.51,-38.38
80908,"Sco","Scorpius","さそり",,,8.72,16.52,-41.05
80910,"Sco","Scorpius","さそり",,,6.07,16.52,-26.53
80911,"Sco","Scorpius","さそり",,,4.24,16.52,-34.70
80914,"Sco","Scorpius","さそり",,,8.72,16.52,-40.64
80919,"Sco","Scorpius","さそり",,,9.30,16.52,-31.81
80924,"Sco","Scorpius","さそり",,,9.88,16.52,-40.21
80925,"Sco","Scorpius","さそり",,,7.24,16.52,-39.01
80928,"Sco","Scorpius","さそり",,,9.80,16.52,-40.83
80932,"Sco","Scorpius","さそり",,,9.36,16.52,-41.65
80938,"Sco","Scorpius","さそり",,,9.39,16.52,-36.10
80942,"Sco","Scorpius","さそり",,,8.93,16.52,-31.65
80945,"Sco","Scorpius","さそり",,,5.31,16.52,-41.81
80951,"Sco","Scorpius","さそり",,,9.57,16.52,-29.64
80959,"Sco","Scorpius","さそり",,,8.25,16.53,-26.01
80972,"Sco","Scorpius","さそり",,,9.56,16.53,-35.78
80977,"Sco","Scorpius","さそり",,,9.58,16.53,-35.72
80980,"Sco","Scorpius","さそり",,,8.78,16.53,-32.13
80987,"Sco","Scorpius","さそり",,,8.65,16.53,-34.23
81009,"Sco","Scorpius","さそり",,,9.06,16.54,-30.19
81029,"Sco","Scorpius","さそり",,,8.75,16.54,-39.35
81034,"Sco","Scorpius","さそり",,,9.38,16.55,-38.95
81050,"Sco","Scorpius","さそり",,,8.16,16.55,-28.11
81055,"Sco","Scorpius","さそり",,,9.16,16.55,-31.37
81064,"Sco","Scorpius","さそり",,,8.00,16.55,-37.24
81070,"Sco","Scorpius","さそり",,,10.50,16.55,-27.10
81082,"Sco","Scorpius","さそり",,,7.97,16.56,-31.28
81083,"Sco","Scorpius","さそり",,,7.47,16.56,-37.38
81088,"Sco","Scorpius","さそり",,,9.53,16.56,-33.35
81092,"Sco","Scorpius","さそり",,,7.76,16.56,-34.44
81099,"Sco","Scorpius","さそり",,,7.71,16.56,-35.54
81114,"Sco","Scorpius","さそり",,,9.81,16.56,-25.81
81118,"Sco","Scorpius","さそり",,,9.93,16.56,-26.50
81127,"Sco","Scorpius","さそり",,,8.49,16.56,-38.45
81133,"Sco","Scorpius","さそり",,,8.35,16.56,-29.83
81136,"Sco","Scorpius","さそり",,,7.47,16.56,-38.39
81138,"Sco","Scorpius","さそり",,,8.21,16.57,-25.00
81140,"Sco","Scorpius","さそり",,,11.34,16.57,-29.17
81143,"Sco","Scorpius","さそり",,,8.82,16.57,-33.29
81146,"Sco","Scorpius","さそり",,,9.98,16.57,-25.54
81163,"Sco","Scorpius","さそり",,,9.55,16.57,-31.30
81166,"Sco","Scorpius","さそり",,,9.23,16.57,-40.34
81176,"Sco","Scorpius","さそり",,,9.65,16.58,-45.42
81181,"Sco","Scorpius","さそり",,,10.59,16.58,-25.57
81184,"Sco","Scorpius","さそり",,,10.54,16.58,-27.32
81190,"Sco","Scorpius","さそり",,,9.24,16.58,-26.43
81194,"Sco","Scorpius","さそり",,,9.51,16.58,-33.65
81197,"Sco","Scorpius","さそり",,,8.42,16.58,-36.06
81198,"Sco","Scorpius","さそり",,,6.43,16.58,-45.24
81200,"Sco","Scorpius","さそり",,,9.26,16.58,-34.40
81203,"Sco","Scorpius","さそり",,,9.64,16.58,-44.38
81208,"Sco","Scorpius","さそり",,,6.63,16.58,-35.72
81211,"Sco","Scorpius","さそり",,,8.52,16.58,-26.47
81214,"Sco","Scorpius","さそり",,,8.35,16.58,-43.65
81221,"Sco","Scorpius","さそり",,,8.97,16.58,-41.77
81226,"Sco","Scorpius","さそり",,,8.07,16.59,-29.53
81233,"Sco","Scorpius","さそり",,,8.57,16.59,-34.66
81236,"Sco","Scorpius","さそり",,,9.20,16.59,-30.26
81255,"Sco","Scorpius","さそり",,,8.38,16.59,-45.67
81256,"Sco","Scorpius","さそり",,,9.44,16.59,-42.12
81258,"Sco","Scorpius","さそり",,,11.30,16.59,-45.65
81265,"Sco","Scorpius","さそり",,,8.75,16.59,-25.38
81266,"Sco","Scorpius","さそり",,,2.82,16.59,-28.21
81269,"Sco","Scorpius","さそり",,,8.51,16.59,-37.36
81280,"Sco","Scorpius","さそり",,,9.35,16.60,-35.09
81301,"Sco","Scorpius","さそり",,,9.21,16.60,-38.83
81304,"Sco","Scorpius","さそり",,,4.18,16.60,-35.25
81305,"Sco","Scorpius","さそり",,,5.46,16.60,-42.85
81308,"Sco","Scorpius","さそり",,,8.95,16.60,-45.39
81311,"Sco","Scorpius","さそり",,,8.01,16.60,-43.74
81316,"Sco","Scorpius","さそり",,,7.11,16.60,-40.30
81324,"Sco","Scorpius","さそり",,,8.78,16.60,-31.49
81326,"Sco","Scorpius","さそり",,,8.32,16.60,-44.99
81327,"Sco","Scorpius","さそり",,,9.03,16.61,-30.58
81334,"Sco","Scorpius","さそり",,,8.80,16.61,-32.10
81335,"Sco","Scorpius","さそり",,,6.89,16.61,-35.91
81343,"Sco","Scorpius","さそり",,,9.26,16.61,-32.45
81368,"Sco","Scorpius","さそり",,,7.36,16.61,-38.67
81374,"Sco","Scorpius","さそり",,,9.40,16.61,-32.14
81380,"Sco","Scorpius","さそり",,,9.82,16.62,-39.01
81385,"Sco","Scorpius","さそり",,,9.18,16.62,-33.14
81392,"Sco","Scorpius","さそり",,,9.58,16.62,-30.11
81403,"Sco","Scorpius","さそり",,,9.28,16.62,-36.20
81405,"Sco","Scorpius","さそり",,,8.57,16.62,-32.88
81407,"Sco","Scorpius","さそり",,,8.95,16.62,-40.88
81415,"Sco","Scorpius","さそり",,,8.44,16.62,-42.95
81444,"Sco","Scorpius","さそり",,,7.95,16.63,-44.30
81447,"Sco","Scorpius","さそり",,,9.08,16.63,-34.01
81449,"Sco","Scorpius","さそり",,,9.15,16.63,-39.49
81455,"Sco","Scorpius","さそり",,,9.15,16.63,-29.67
81456,"Sco","Scorpius","さそり",,,9.82,16.63,-27.03
81457,"Sco","Scorpius","さそり",,,9.64,16.63,-24.88
81466,"Sco","Scorpius","さそり",,,9.00,16.63,-32.33
81472,"Sco","Scorpius","さそり",,,5.83,16.64,-43.39
81475,"Sco","Scorpius","さそり",,,9.55,16.64,-36.73
81477,"Sco","Scorpius","さそり",,,6.93,16.64,-39.15
81479,"Sco","Scorpius","さそり",,,9.45,16.64,-41.63
81480,"Sco","Scorpius","さそり",,,9.72,16.64,-31.10
81487,"Sco","Scorpius","さそり",,,8.43,16.64,-26.98
81488,"Sco","Scorpius","さそり",,,8.97,16.64,-39.55
81492,"Sco","Scorpius","さそり",,,9.50,16.64,-36.07
81495,"Sco","Scorpius","さそり",,,8.66,16.64,-36.85
81498,"Sco","Scorpius","さそり",,,8.21,16.64,-29.89
81504,"Sco","Scorpius","さそり",,,9.10,16.64,-34.34
81508,"Sco","Scorpius","さそり",,,7.53,16.64,-44.15
81521,"Sco","Scorpius","さそり",,,8.14,16.65,-27.98
81522,"Sco","Scorpius","さそり",,,10.47,16.65,-42.81
81523,"Sco","Scorpius","さそり",,,5.93,16.65,-37.21
81527,"Sco","Scorpius","さそり",,,8.55,16.65,-28.90
81542,"Sco","Scorpius","さそり",,,7.14,16.65,-29.92
81545,"Sco","Scorpius","さそり",,,9.23,16.65,-34.87
81547,"Sco","Scorpius","さそり",,,9.71,16.65,-44.65
81552,"Sco","Scorpius","さそり",,,7.59,16.65,-30.46
81566,"Sco","Scorpius","さそり",,,8.66,16.65,-27.28
81569,"Sco","Scorpius","さそり",,,10.31,16.65,-37.26
81582,"Sco","Scorpius","さそり",,,9.31,16.66,-25.00
81586,"Sco","Scorpius","さそり",,,9.11,16.66,-32.99
81595,"Sco","Scorpius","さそり",,,9.06,16.66,-37.75
81603,"Sco","Scorpius","さそり",,,8.78,16.66,-35.26
81616,"Sco","Scorpius","さそり",,,6.89,16.66,-28.94
81617,"Sco","Scorpius","さそり",,,8.58,16.66,-26.45
81619,"Sco","Scorpius","さそり",,,8.37,16.67,-27.99
81620,"Sco","Scorpius","さそり",,,6.55,16.67,-33.74
81621,"Sco","Scorpius","さそり",,,7.91,16.67,-26.32
81635,"Sco","Scorpius","さそり",,,8.60,16.67,-33.89
81639,"Sco","Scorpius","さそり",,,6.64,16.67,-35.68
81643,"Sco","Scorpius","さそり",,,8.19,16.67,-39.88
81645,"Sco","Scorpius","さそり",,,7.92,16.67,-41.12
81675,"Sco","Scorpius","さそり",,,7.77,16.68,-37.89
81682,"Sco","Scorpius","さそり",,,9.12,16.68,-36.66
81699,"Sco","Scorpius","さそり",,,9.11,16.68,-38.72
81708,"Sco","Scorpius","さそり",,,8.94,16.68,-38.07
81712,"Sco","Scorpius","さそり",,,7.54,16.69,-42.06
81719,"Sco","Scorpius","さそり",,,9.01,16.69,-32.31
81725,"Sco","Scorpius","さそり",,,10.15,16.69,-42.94
81727,"Sco","Scorpius","さそり",,,8.97,16.69,-28.58
81731,"Sco","Scorpius","さそり",,,6.52,16.69,-27.80
81737,"Sco","Scorpius","さそり",,,10.00,16.69,-43.89
81740,"Sco","Scorpius","さそり",,,11.04,16.69,-30.68
81741,"Sco","Scorpius","さそり",,,5.84,16.69,-33.14
81746,"Sco","Scorpius","さそり",,,7.03,16.69,-45.36
81747,"Sco","Scorpius","さそり",,,8.42,16.69,-27.10
81751,"Sco","Scorpius","さそり",,,9.48,16.69,-40.46
81760,"Sco","Scorpius","さそり",,,9.01,16.70,-35.62
81764,"Sco","Scorpius","さそり",,,7.69,16.70,-30.52
81765,"Sco","Scorpius","さそり",,,9.00,16.70,-28.84
81767,"Sco","Scorpius","さそり",,,7.84,16.70,-29.12
81769,"Sco","Scorpius","さそり",,,9.45,16.70,-36.55
81772,"Sco","Scorpius","さそり",,,8.97,16.70,-34.46
81775,"Sco","Scorpius","さそり",,,9.44,16.70,-31.50
81789,"Sco","Scorpius","さそり",,,9.07,16.70,-32.78
81798,"Sco","Scorpius","さそり",,,10.25,16.70,-44.14
81803,"Sco","Scorpius","さそり",,,6.47,16.70,-37.07
81804,"Sco","Scorpius","さそり",,,8.23,16.70,-44.10
81808,"Sco","Scorpius","さそり",,,9.47,16.70,-29.39
81818,"Sco","Scorpius","さそり",,,9.58,16.71,-42.11
81819,"Sco","Scorpius","さそり",,,7.16,16.71,-37.34
81821,"Sco","Scorpius","さそり",,,7.91,16.71,-27.18
81824,"Sco","Scorpius","さそり",,,8.10,16.71,-40.28
81827,"Sco","Scorpius","さそり",,,11.50,16.71,-33.23
81832,"Sco","Scorpius","さそり",,,8.13,16.71,-40.62
81842,"Sco","Scorpius","さそり",,,7.68,16.71,-38.67
81845,"Sco","Scorpius","さそり",,,8.15,16.71,-39.50
81851,"Sco","Scorpius","さそり",,,8.44,16.71,-26.45
81853,"Sco","Scorpius","さそり",,,8.11,16.71,-36.63
81858,"Sco","Scorpius","さそり",,,8.78,16.71,-31.34
81874,"Sco","Scorpius","さそり",,,8.14,16.72,-28.31
81891,"Sco","Scorpius","さそり",,,6.46,16.72,-32.10
81896,"Sco","Scorpius","さそり",,,8.62,16.72,-39.48
81903,"Sco","Scorpius","さそり",,,6.21,16.72,-41.11
81904,"Sco","Scorpius","さそり",,,6.05,16.72,-38.15
81910,"Sco","Scorpius","さそり",,,6.72,16.73,-26.80
81914,"Sco","Scorpius","さそり",,,6.14,16.73,-41.11
81921,"Sco","Scorpius","さそり",,,9.08,16.73,-36.63
81935,"Sco","Scorpius","さそり",,,7.52,16.73,-38.94
81936,"Sco","Scorpius","さそり",,,8.67,16.73,-43.76
81939,"Sco","Scorpius","さそり",,,6.58,16.73,-27.45
81949,"Sco","Scorpius","さそり",,,7.95,16.73,-44.37
81950,"Sco","Scorpius","さそり",,,8.66,16.73,-26.32
81960,"Sco","Scorpius","さそり",,,10.14,16.74,-44.96
81964,"Sco","Scorpius","さそり",,,9.21,16.74,-29.63
81965,"Sco","Scorpius","さそり",,,8.66,16.74,-32.48
81972,"Sco","Scorpius","さそり",,,5.64,16.74,-40.83
81981,"Sco","Scorpius","さそり",,,7.94,16.74,-27.45
81984,"Sco","Scorpius","さそり",,,8.69,16.74,-41.92
81985,"Sco","Scorpius","さそり",,,9.05,16.74,-30.39
81992,"Sco","Scorpius","さそり",,,5.99,16.75,-28.50
82001,"Sco","Scorpius","さそり",,,8.23,16.75,-31.37
82008,"Sco","Scorpius","さそり",,,9.89,16.75,-27.92
82022,"Sco","Scorpius","さそり",,,6.99,16.75,-30.80
82026,"Sco","Scorpius","さそり",,,9.85,16.75,-37.32
82033,"Sco","Scorpius","さそり",,,8.65,16.75,-34.61
82046,"Sco","Scorpius","さそり",,,7.11,16.75,-33.85
82052,"Sco","Scorpius","さそり",,,9.32,16.76,-25.69
82057,"Sco","Scorpius","さそり",,,9.77,16.76,-42.22
82067,"Sco","Scorpius","さそり",,,9.04,16.76,-35.86
82069,"Sco","Scorpius","さそり",,,7.02,16.76,-26.64
82074,"Sco","Scorpius","さそり",,,8.06,16.76,-43.64
82077,"Sco","Scorpius","さそり",,,8.20,16.76,-39.87
82083,"Sco","Scorpius","さそり",,,9.79,16.76,-31.79
82085,"Sco","Scorpius","さそり",,,9.20,16.76,-35.63
82088,"Sco","Scorpius","さそり",,,9.17,16.76,-35.61
82094,"Sco","Scorpius","さそり",,,8.66,16.76,-41.22
82121,"Sco","Scorpius","さそり",,,7.07,16.77,-41.61
82125,"Sco","Scorpius","さそり",,,9.04,16.77,-35.79
82131,"Sco","Scorpius","さそり",,,8.02,16.77,-32.94
82132,"Sco","Scorpius","さそり",,,10.59,16.77,-30.63
82135,"Sco","Scorpius","さそり",,,5.48,16.77,-39.37
82140,"Sco","Scorpius","さそり",,,6.72,16.78,-25.52
82153,"Sco","Scorpius","さそり",,,9.47,16.78,-28.37
82154,"Sco","Scorpius","さそり",,,6.92,16.78,-39.53
82157,"Sco","Scorpius","さそり",,,9.97,16.78,-26.70
82161,"Sco","Scorpius","さそり",,,8.01,16.78,-29.59
82178,"Sco","Scorpius","さそり",,,8.41,16.78,-44.71
82193,"Sco","Scorpius","さそり",,,7.41,16.79,-45.46
82199,"Sco","Scorpius","さそり",,,8.20,16.79,-42.87
82201,"Sco","Scorpius","さそり",,,7.79,16.79,-33.69
82205,"Sco","Scorpius","さそり",,,9.89,16.79,-42.83
82211,"Sco","Scorpius","さそり",,,9.90,16.79,-26.18
82215,"Sco","Scorpius","さそり",,,8.90,16.79,-29.93
82220,"Sco","Scorpius","さそり",,,9.42,16.79,-33.18
82221,"Sco","Scorpius","さそり",,,7.22,16.79,-45.39
82227,"Sco","Scorpius","さそり",,,8.19,16.79,-40.97
82228,"Sco","Scorpius","さそり",,,7.73,16.79,-28.95
82229,"Sco","Scorpius","さそり",,,8.14,16.79,-28.38
82250,"Sco","Scorpius","さそり",,,9.84,16.80,-31.85
82254,"Sco","Scorpius","さそり",,,6.82,16.80,-31.20
82264,"Sco","Scorpius","さそり",,,9.47,16.80,-28.42
82272,"Sco","Scorpius","さそり",,,7.39,16.81,-37.25
82279,"Sco","Scorpius","さそり",,,7.89,16.81,-38.07
82286,"Sco","Scorpius","さそり",,,9.77,16.81,-39.77
82287,"Sco","Scorpius","さそり",,,9.21,16.81,-31.90
82299,"Sco","Scorpius","さそり",,,8.77,16.81,-33.72
82300,"Sco","Scorpius","さそり",,,9.43,16.81,-34.86
82309,"Sco","Scorpius","さそり",,,9.02,16.81,-29.94
82311,"Sco","Scorpius","さそり",,,9.04,16.81,-36.51
82315,"Sco","Scorpius","さそり",,,8.88,16.81,-27.57
82317,"Sco","Scorpius","さそり",,,8.93,16.81,-30.78
82326,"Sco","Scorpius","さそり",,,8.13,16.82,-29.12
82328,"Sco","Scorpius","さそり",,,9.16,16.82,-25.55
82330,"Sco","Scorpius","さそり",,,9.67,16.82,-27.57
82347,"Sco","Scorpius","さそり",,,6.81,16.82,-31.65
82358,"Sco","Scorpius","さそり",,,8.24,16.82,-40.34
82360,"Sco","Scorpius","さそり",,,8.14,16.82,-36.40
82362,"Sco","Scorpius","さそり",,,9.17,16.82,-35.29
82366,"Sco","Scorpius","さそり",,,7.16,16.83,-42.00
82378,"Sco","Scorpius","さそり",,,7.99,16.83,-41.62
82383,"Sco","Scorpius","さそり",,,10.23,16.83,-43.63
82396,"Sco","Scorpius","さそり",,,2.29,16.83,-34.29
82397,"Sco","Scorpius","さそり",,,7.50,16.83,-26.74
82423,"Sco","Scorpius","さそり",,,7.91,16.84,-31.63
82424,"Sco","Scorpius","さそり",,,8.06,16.84,-41.45
82425,"Sco","Scorpius","さそり",,,9.05,16.84,-26.08
82427,"Sco","Scorpius","さそり",,,8.28,16.84,-25.42
82430,"Sco","Scorpius","さそり",,,7.24,16.84,-38.25
82434,"Sco","Scorpius","さそり",,,10.06,16.84,-43.78
82447,"Sco","Scorpius","さそり",,,8.34,16.84,-36.75
82450,"Sco","Scorpius","さそり",,,8.28,16.84,-43.70
82451,"Sco","Scorpius","さそり",,,10.52,16.84,-26.78
82453,"Sco","Scorpius","さそり",,,6.10,16.85,-37.51
82454,"Sco","Scorpius","さそり",,,8.57,16.85,-40.00
82458,"Sco","Scorpius","さそり",,,7.87,16.85,-27.97
82467,"Sco","Scorpius","さそり",,,7.76,16.85,-30.67
82474,"Sco","Scorpius","さそり",,,7.68,16.85,-24.83
82479,"Sco","Scorpius","さそり",,,8.33,16.85,-28.02
82489,"Sco","Scorpius","さそり",,,8.64,16.85,-39.69
82492,"Sco","Scorpius","さそり",,,8.28,16.85,-29.40
82493,"Sco","Scorpius","さそり",,,5.23,16.85,-41.23
82494,"Sco","Scorpius","さそり",,,8.96,16.85,-32.77
82498,"Sco","Scorpius","さそり",,,9.82,16.86,-45.42
82507,"Sco","Scorpius","さそり",,,10.23,16.86,-44.64
82509,"Sco","Scorpius","さそり",,,8.80,16.86,-35.74
82511,"Sco","Scorpius","さそり",,,8.48,16.86,-25.53
82512,"Sco","Scorpius","さそり",,,7.54,16.86,-26.87
82514,"Sco","Scorpius","さそり",,,3.00,16.86,-38.04
82534,"Sco","Scorpius","さそり",,,8.30,16.87,-26.91
82538,"Sco","Scorpius","さそり",,,6.91,16.87,-25.60
82543,"Sco","Scorpius","さそり",,,6.36,16.87,-41.85
82545,"Sco","Scorpius","さそり",,,3.56,16.87,-38.01
82546,"Sco","Scorpius","さそり",,,8.64,16.87,-31.82
82549,"Sco","Scorpius","さそり",,,10.02,16.87,-30.16
82551,"Sco","Scorpius","さそり",,,8.99,16.87,-37.60
82554,"Sco","Scorpius","さそり",,,6.35,16.87,-40.72
82560,"Sco","Scorpius","さそり",,,7.04,16.87,-42.99
82561,"Sco","Scorpius","さそり",,,7.48,16.87,-38.43
82565,"Sco","Scorpius","さそり",,,6.71,16.87,-37.59
82569,"Sco","Scorpius","さそり",,,8.85,16.87,-38.76
82570,"Sco","Scorpius","さそり",,,8.65,16.87,-30.69
82596,"Sco","Scorpius","さそり",,,7.54,16.88,-31.88
82597,"Sco","Scorpius","さそり",,,9.00,16.88,-33.38
82598,"Sco","Scorpius","さそり",,,7.02,16.88,-30.42
82613,"Sco","Scorpius","さそり",,,8.67,16.88,-44.30
82617,"Sco","Scorpius","さそり",,,8.17,16.88,-45.46
82623,"Sco","Scorpius","さそり",,,8.78,16.89,-36.65
82625,"Sco","Scorpius","さそり",,,9.02,16.89,-39.10
82639,"Sco","Scorpius","さそり",,,9.09,16.89,-32.34
82650,"Sco","Scorpius","さそり",,,5.95,16.89,-43.05
82652,"Sco","Scorpius","さそり",,,8.92,16.89,-40.31
82669,"Sco","Scorpius","さそり",,,6.28,16.89,-41.99
82671,"Sco","Scorpius","さそり",,,4.70,16.89,-42.36
82676,"Sco","Scorpius","さそり",,,5.46,16.90,-41.80
82685,"Sco","Scorpius","さそり",,,7.32,16.90,-41.07
82691,"Sco","Scorpius","さそり",,,6.07,16.90,-41.82
82706,"Sco","Scorpius","さそり",,,6.61,16.90,-41.81
82709,"Sco","Scorpius","さそり",,,8.40,16.90,-38.09
82711,"Sco","Scorpius","さそり",,,7.41,16.90,-44.89
82714,"Sco","Scorpius","さそり",,,7.03,16.90,-33.47
82716,"Sco","Scorpius","さそり",,,5.84,16.90,-42.47
82717,"Sco","Scorpius","さそり",,,8.10,16.90,-30.71
82729,"Sco","Scorpius","さそり",,,3.62,16.90,-42.36
82731,"Sco","Scorpius","さそり",,,6.34,16.90,-30.58
82732,"Sco","Scorpius","さそり",,,8.30,16.91,-31.33
82735,"Sco","Scorpius","さそり",,,8.09,16.91,-36.22
82738,"Sco","Scorpius","さそり",,,7.68,16.91,-32.19
82739,"Sco","Scorpius","さそり",,,11.78,16.91,-35.22
82740,"Sco","Scorpius","さそり",,,7.07,16.91,-43.56
82747,"Sco","Scorpius","さそり",,,9.21,16.91,-36.88
82767,"Sco","Scorpius","さそり",,,7.20,16.91,-40.52
82775,"Sco","Scorpius","さそり",,,5.78,16.91,-41.15
82783,"Sco","Scorpius","さそり",,,6.30,16.91,-42.09
82786,"Sco","Scorpius","さそり",,,7.25,16.91,-38.41
82791,"Sco","Scorpius","さそり",,,8.17,16.91,-31.22
82792,"Sco","Scorpius","さそり",,,6.72,16.91,-31.40
82819,"Sco","Scorpius","さそり",,,8.53,16.92,-39.46
82829,"Sco","Scorpius","さそり",,,6.77,16.92,-43.31
82833,"Sco","Scorpius","さそり",,,10.32,16.92,-45.10
82832,"Sco","Scorpius","さそり",,,7.28,16.92,-39.50
82834,"Sco","Scorpius","さそり",,,9.58,16.92,-32.06
82848,"Sco","Scorpius","さそり",,,7.67,16.93,-31.46
82850,"Sco","Scorpius","さそり",,,8.29,16.93,-43.07
82852,"Sco","Scorpius","さそり",,,9.40,16.93,-37.09
82855,"Sco","Scorpius","さそり",,,6.29,16.93,-33.50
82869,"Sco","Scorpius","さそり",,,7.41,16.93,-37.18
82876,"Sco","Scorpius","さそり",,,6.70,16.93,-40.65
82881,"Sco","Scorpius","さそり",,,9.10,16.93,-34.10
82885,"Sco","Scorpius","さそり",,,8.91,16.93,-35.48
82888,"Sco","Scorpius","さそり",,,9.07,16.93,-31.38
82911,"Sco","Scorpius","さそり",,,6.18,16.94,-40.82
82912,"Sco","Scorpius","さそり",,,6.97,16.94,-30.58
82917,"Sco","Scorpius","さそり",,,8.45,16.94,-43.94
82926,"Sco","Scorpius","さそり",,,11.18,16.94,-39.09
82934,"Sco","Scorpius","さそり",,,9.63,16.94,-42.79
82936,"Sco","Scorpius","さそり",,,7.10,16.94,-40.51
82943,"Sco","Scorpius","さそり",,,7.81,16.94,-38.43
82960,"Sco","Scorpius","さそり",,,5.48,16.95,-33.25
83001,"Sco","Scorpius","さそり",,,8.77,16.96,-45.34
83009,"Sco","Scorpius","さそり",,,8.27,16.96,-37.76
83011,"Sco","Scorpius","さそり",,,9.48,16.96,-43.79
83012,"Sco","Scorpius","さそり",,,9.78,16.96,-44.85
83014,"Sco","Scorpius","さそり",,,6.59,16.96,-39.11
83022,"Sco","Scorpius","さそり",,,9.01,16.96,-34.40
83025,"Sco","Scorpius","さそり",,,9.91,16.96,-41.30
83026,"Sco","Scorpius","さそり",,,9.69,16.96,-31.96
83035,"Sco","Scorpius","さそり",,,8.79,16.96,-32.06
83036,"Sco","Scorpius","さそり",,,7.55,16.96,-40.35
83038,"Sco","Scorpius","さそり",,,8.45,16.96,-30.21
83041,"Sco","Scorpius","さそり",,,10.20,16.96,-36.65
83042,"Sco","Scorpius","さそり",,,9.77,16.96,-30.21
83059,"Sco","Scorpius","さそり",,,7.16,16.97,-33.60
83060,"Sco","Scorpius","さそり",,,8.95,16.97,-35.68
83062,"Sco","Scorpius","さそり",,,9.12,16.97,-33.04
83065,"Sco","Scorpius","さそり",,,8.71,16.97,-43.00
83067,"Sco","Scorpius","さそり",,,9.06,16.97,-34.58
83074,"Sco","Scorpius","さそり",,,9.50,16.97,-32.36
83079,"Sco","Scorpius","さそり",,,7.85,16.97,-30.84
83100,"Sco","Scorpius","さそり",,,6.05,16.98,-37.62
83101,"Sco","Scorpius","さそり",,,8.33,16.98,-39.55
83104,"Sco","Scorpius","さそり",,,7.44,16.98,-39.16
83119,"Sco","Scorpius","さそり",,,7.57,16.98,-38.56
83124,"Sco","Scorpius","さそり",,,8.99,16.98,-37.57
83132,"Sco","Scorpius","さそり",,,8.11,16.98,-41.40
83155,"Sco","Scorpius","さそり",,,7.88,16.99,-41.28
83159,"Sco","Scorpius","さそり",,,9.02,16.99,-37.43
83161,"Sco","Scorpius","さそり",,,8.48,16.99,-41.97
83169,"Sco","Scorpius","さそり",,,9.93,16.99,-43.85
83177,"Sco","Scorpius","さそり",,,8.89,16.99,-31.59
83182,"Sco","Scorpius","さそり",,,9.61,17.00,-31.50
83202,"Sco","Scorpius","さそり",,,6.50,17.00,-44.98
83214,"Sco","Scorpius","さそり",,,7.72,17.00,-37.93
83227,"Sco","Scorpius","さそり",,,8.63,17.00,-33.10
83230,"Sco","Scorpius","さそり",,,6.58,17.00,-45.45
83235,"Sco","Scorpius","さそり",,,5.95,17.01,-35.93
83241,"Sco","Scorpius","さそり",,,8.78,17.01,-30.51
83251,"Sco","Scorpius","さそり",,,8.92,17.01,-31.77
83252,"Sco","Scorpius","さそり",,,8.82,17.01,-33.02
83263,"Sco","Scorpius","さそり",,,8.50,17.01,-45.02
83266,"Sco","Scorpius","さそり",,,7.28,17.01,-42.07
83281,"Sco","Scorpius","さそり",,,7.46,17.02,-38.20
83284,"Sco","Scorpius","さそり",,,9.29,17.02,-36.70
83288,"Sco","Scorpius","さそり",,,9.07,17.02,-43.64
83325,"Sco","Scorpius","さそり",,,7.68,17.03,-30.77
83330,"Sco","Scorpius","さそり",,,8.71,17.03,-44.51
83334,"Sco","Scorpius","さそり",,,8.20,17.03,-33.90
83336,"Sco","Scorpius","さそり",,,5.03,17.03,-32.14
83340,"Sco","Scorpius","さそり",,,7.73,17.03,-37.30
83355,"Sco","Scorpius","さそり",,,8.40,17.03,-30.65
83358,"Sco","Scorpius","さそり",,,8.49,17.03,-42.62
83368,"Sco","Scorpius","さそり",,,8.23,17.03,-44.91
83374,"Sco","Scorpius","さそり",,,8.45,17.03,-33.51
83379,"Sco","Scorpius","さそり",,,9.01,17.04,-41.31
83403,"Sco","Scorpius","さそり",,,9.59,17.04,-42.25
83404,"Sco","Scorpius","さそり",,,9.83,17.04,-32.67
83409,"Sco","Scorpius","さそり",,,9.68,17.04,-33.81
83410,"Sco","Scorpius","さそり",,,7.41,17.04,-38.46
83415,"Sco","Scorpius","さそり",,,9.45,17.04,-43.11
83417,"Sco","Scorpius","さそり",,,9.11,17.05,-43.84
83418,"Sco","Scorpius","さそり",,,8.89,17.05,-37.40
83427,"Sco","Scorpius","さそり",,,8.73,17.05,-45.40
83434,"Sco","Scorpius","さそり",,,8.65,17.05,-38.51
83448,"Sco","Scorpius","さそり",,,6.97,17.05,-31.61
83457,"Sco","Scorpius","さそり",,,7.36,17.05,-40.08
83465,"Sco","Scorpius","さそり",,,8.87,17.05,-32.61
83471,"Sco","Scorpius","さそり",,,10.19,17.05,-40.66
83472,"Sco","Scorpius","さそり",,,8.97,17.05,-34.57
83491,"Sco","Scorpius","さそり",,,5.91,17.06,-38.15
83496,"Sco","Scorpius","さそり",,,8.08,17.06,-35.27
83498,"Sco","Scorpius","さそり",,,7.88,17.06,-44.14
83499,"Sco","Scorpius","さそり",,,6.48,17.06,-37.84
83516,"Sco","Scorpius","さそり",,,8.15,17.06,-39.07
83522,"Sco","Scorpius","さそり",,,9.67,17.06,-30.65
83527,"Sco","Scorpius","さそり",,,8.79,17.07,-36.64
83529,"Sco","Scorpius","さそり",,,7.63,17.07,-45.24
83547,"Sco","Scorpius","さそり",,,7.39,17.07,-43.30
83559,"Sco","Scorpius","さそり",,,8.14,17.07,-37.99
83561,"Sco","Scorpius","さそり",,,9.02,17.07,-37.90
83569,"Sco","Scorpius","さそり",,,7.35,17.07,-31.36
83573,"Sco","Scorpius","さそり",,,8.35,17.08,-38.10
83574,"Sco","Scorpius","さそり",,,4.83,17.08,-34.12
83581,"Sco","Scorpius","さそり",,,8.52,17.08,-31.37
83583,"Sco","Scorpius","さそり",,,8.87,17.08,-38.61
83594,"Sco","Scorpius","さそり",,,6.28,17.08,-45.50
83598,"Sco","Scorpius","さそり",,,8.45,17.08,-41.23
83607,"Sco","Scorpius","さそり",,,8.05,17.08,-41.10
83609,"Sco","Scorpius","さそり",,,9.25,17.08,-33.76
83611,"Sco","Scorpius","さそり",,,8.03,17.08,-44.39
83612,"Sco","Scorpius","さそり",,,8.38,17.08,-33.77
83625,"Sco","Scorpius","さそり",,,8.86,17.09,-35.07
83646,"Sco","Scorpius","さそり",,,8.82,17.09,-36.54
83650,"Sco","Scorpius","さそり",,,6.18,17.09,-44.10
83653,"Sco","Scorpius","さそり",,,9.54,17.09,-32.53
83666,"Sco","Scorpius","さそり",,,7.39,17.10,-44.37
83668,"Sco","Scorpius","さそり",,,8.41,17.10,-31.95
83687,"Sco","Scorpius","さそり",,,7.73,17.10,-38.62
83693,"Sco","Scorpius","さそり",,,5.98,17.10,-37.22
83701,"Sco","Scorpius","さそり",,,7.82,17.10,-37.10
83703,"Sco","Scorpius","さそり",,,9.24,17.10,-30.73
83704,"Sco","Scorpius","さそり",,,8.21,17.10,-44.57
83706,"Sco","Scorpius","さそり",,,6.15,17.10,-35.45
83709,"Sco","Scorpius","さそり",,,7.95,17.10,-39.30
83723,"Sco","Scorpius","さそり",,,9.67,17.11,-43.83
83721,"Sco","Scorpius","さそり",,,7.40,17.11,-36.07
83733,"Sco","Scorpius","さそり",,,8.15,17.11,-35.88
83742,"Sco","Scorpius","さそり",,,9.30,17.11,-33.12
83745,"Sco","Scorpius","さそり",,,8.43,17.11,-36.72
83755,"Sco","Scorpius","さそり",,,9.03,17.11,-43.70
83760,"Sco","Scorpius","さそり",,,9.78,17.11,-34.90
83766,"Sco","Scorpius","さそり",,,9.85,17.11,-34.51
83779,"Sco","Scorpius","さそり",,,8.16,17.12,-35.89
83783,"Sco","Scorpius","さそり",,,9.20,17.12,-43.83
83789,"Sco","Scorpius","さそり",,,8.11,17.12,-37.30
83798,"Sco","Scorpius","さそり",,,8.89,17.12,-30.59
83801,"Sco","Scorpius","さそり",,,8.19,17.12,-35.20
83806,"Sco","Scorpius","さそり",,,9.46,17.12,-30.30
83807,"Sco","Scorpius","さそり",,,8.73,17.12,-44.69
83812,"Sco","Scorpius","さそり",,,7.12,17.12,-31.07
83818,"Sco","Scorpius","さそり",,,8.21,17.13,-42.97
83843,"Sco","Scorpius","さそり",,,8.76,17.13,-41.25
83845,"Sco","Scorpius","さそり",,,7.00,17.13,-41.61
83846,"Sco","Scorpius","さそり",,,8.30,17.13,-41.72
83848,"Sco","Scorpius","さそり",,,9.61,17.13,-41.01
83858,"Sco","Scorpius","さそり",,,6.89,17.13,-41.02
83861,"Sco","Scorpius","さそり",,,8.73,17.13,-33.86
83874,"Sco","Scorpius","さそり",,,7.68,17.14,-36.64
83879,"Sco","Scorpius","さそり",,,8.46,17.14,-40.84
83880,"Sco","Scorpius","さそり",,,9.32,17.14,-39.99
83882,"Sco","Scorpius","さそり",,,9.09,17.14,-42.69
83886,"Sco","Scorpius","さそり",,,7.66,17.14,-39.33
83896,"Sco","Scorpius","さそり",,,5.93,17.14,-30.40
83897,"Sco","Scorpius","さそり",,,8.84,17.14,-45.15
83922,"Sco","Scorpius","さそり",,,9.03,17.15,-37.91
83932,"Sco","Scorpius","さそり",,,8.66,17.15,-33.49
83933,"Sco","Scorpius","さそり",,,8.81,17.15,-42.41
83935,"Sco","Scorpius","さそり",,,8.03,17.15,-34.75
83937,"Sco","Scorpius","さそり",,,9.80,17.15,-37.26
83941,"Sco","Scorpius","さそり",,,10.70,17.15,-35.39
83959,"Sco","Scorpius","さそり",,,8.08,17.16,-40.22
83970,"Sco","Scorpius","さそり",,,8.14,17.16,-45.63
83992,"Sco","Scorpius","さそり",,,9.49,17.16,-40.44
84013,"Sco","Scorpius","さそり",,,8.59,17.17,-32.62
84015,"Sco","Scorpius","さそり",,,8.95,17.17,-33.02
84033,"Sco","Scorpius","さそり",,,5.06,17.17,-44.55
84055,"Sco","Scorpius","さそり",,,9.27,17.18,-31.58
84057,"Sco","Scorpius","さそり",,,7.72,17.18,-43.48
84066,"Sco","Scorpius","さそり",,,9.20,17.18,-44.26
84071,"Sco","Scorpius","さそり",,,7.06,17.18,-32.32
84087,"Sco","Scorpius","さそり",,,9.39,17.19,-38.41
84104,"Sco","Scorpius","さそり",,,7.76,17.19,-37.85
84117,"Sco","Scorpius","さそり",,,8.94,17.19,-41.99
84119,"Sco","Scorpius","さそり",,,8.99,17.19,-31.74
84124,"Sco","Scorpius","さそり",,,9.97,17.19,-36.04
84126,"Sco","Scorpius","さそり",,,8.92,17.19,-30.43
84134,"Sco","Scorpius","さそり",,,8.85,17.19,-33.61
84141,"Sco","Scorpius","さそり",,,9.06,17.20,-35.75
84142,"Sco","Scorpius","さそり",,,8.66,17.20,-30.77
84143,"Sco","Scorpius","さそり",,,3.32,17.20,-43.23
84150,"Sco","Scorpius","さそり",,,5.66,17.20,-39.50
84151,"Sco","Scorpius","さそり",,,6.30,17.20,-38.82
84152,"Sco","Scorpius","さそり",,,8.55,17.20,-43.49
84162,"Sco","Scorpius","さそり",,,8.35,17.20,-34.36
84204,"Sco","Scorpius","さそり",,,9.93,17.21,-41.50
84221,"Sco","Scorpius","さそり",,,10.19,17.21,-44.58
84226,"Sco","Scorpius","さそり",,,5.95,17.21,-32.43
84228,"Sco","Scorpius","さそり",,,8.65,17.21,-32.24
84238,"Sco","Scorpius","さそり",,,6.59,17.21,-37.95
84240,"Sco","Scorpius","さそり",,,9.85,17.21,-33.84
84252,"Sco","Scorpius","さそり",,,9.62,17.22,-30.53
84280,"Sco","Scorpius","さそり",,,8.94,17.22,-37.89
84282,"Sco","Scorpius","さそり",,,8.01,17.22,-32.85
84290,"Sco","Scorpius","さそり",,,6.74,17.23,-38.29
84292,"Sco","Scorpius","さそり",,,7.93,17.23,-32.24
84305,"Sco","Scorpius","さそり",,,8.40,17.23,-45.33
84310,"Sco","Scorpius","さそり",,,8.75,17.23,-37.62
84318,"Sco","Scorpius","さそり",,,9.53,17.23,-31.20
84320,"Sco","Scorpius","さそり",,,7.92,17.23,-35.12
84331,"Sco","Scorpius","さそり",,,8.06,17.24,-43.63
84332,"Sco","Scorpius","さそり",,,6.42,17.24,-39.76
84334,"Sco","Scorpius","さそり",,,8.41,17.24,-41.47
84337,"Sco","Scorpius","さそり",,,8.44,17.24,-34.80
84368,"Sco","Scorpius","さそり",,,9.33,17.24,-44.68
84370,"Sco","Scorpius","さそり",,,8.86,17.24,-36.45
84377,"Sco","Scorpius","さそり",,,7.77,17.24,-38.94
84381,"Sco","Scorpius","さそり",,,8.82,17.25,-31.32
84395,"Sco","Scorpius","さそり",,,8.34,17.25,-33.19
84398,"Sco","Scorpius","さそり",,,8.28,17.25,-44.40
84401,"Sco","Scorpius","さそり",,,5.60,17.25,-33.54
84404,"Sco","Scorpius","さそり",,,8.92,17.25,-35.88
84409,"Sco","Scorpius","さそり",,,6.71,17.25,-38.21
84410,"Sco","Scorpius","さそり",,,8.06,17.25,-42.48
84419,"Sco","Scorpius","さそり",,,8.54,17.25,-42.77
84425,"Sco","Scorpius","さそり",,,5.95,17.25,-38.59
84429,"Sco","Scorpius","さそり",,,7.85,17.26,-34.35
84435,"Sco","Scorpius","さそり",,,8.69,17.26,-33.67
84437,"Sco","Scorpius","さそり",,,8.23,17.26,-32.04
84438,"Sco","Scorpius","さそり",,,8.69,17.26,-34.93
84440,"Sco","Scorpius","さそり",,,9.16,17.26,-41.09
84442,"Sco","Scorpius","さそり",,,9.12,17.26,-40.55
84444,"Sco","Scorpius","さそり",,,6.54,17.26,-33.73
84445,"Sco","Scorpius","さそり",,,6.20,17.26,-30.21
84452,"Sco","Scorpius","さそり",,,10.22,17.26,-44.24
84463,"Sco","Scorpius","さそり",,,9.79,17.26,-41.22
84466,"Sco","Scorpius","さそり",,,9.59,17.26,-42.52
84473,"Sco","Scorpius","さそり",,,9.10,17.26,-41.64
84475,"Sco","Scorpius","さそり",,,8.27,17.26,-38.33
84483,"Sco","Scorpius","さそり",,,6.75,17.27,-42.33
84485,"Sco","Scorpius","さそり",,,8.48,17.27,-39.61
84489,"Sco","Scorpius","さそり",,,6.09,17.27,-35.75
84528,"Sco","Scorpius","さそり",,,8.78,17.27,-37.40
84533,"Sco","Scorpius","さそり",,,7.27,17.28,-30.35
84542,"Sco","Scorpius","さそり",,,9.01,17.28,-30.34
84551,"Sco","Scorpius","さそり",,,5.53,17.28,-32.66
84554,"Sco","Scorpius","さそり",,,8.51,17.28,-33.27
84556,"Sco","Scorpius","さそり",,,6.46,17.28,-44.77
84572,"Sco","Scorpius","さそり",,,8.14,17.28,-32.06
84576,"Sco","Scorpius","さそり",,,6.96,17.28,-30.16
84578,"Sco","Scorpius","さそり",,,8.05,17.28,-35.54
84608,"Sco","Scorpius","さそり",,,10.05,17.29,-45.13
84611,"Sco","Scorpius","さそり",,,8.96,17.29,-30.77
84612,"Sco","Scorpius","さそり",,,7.89,17.29,-35.22
84613,"Sco","Scorpius","さそり",,,8.04,17.29,-34.09
84628,"Sco","Scorpius","さそり",,,7.02,17.30,-43.57
84634,"Sco","Scorpius","さそり",,,6.92,17.30,-38.16
84638,"Sco","Scorpius","さそり",,,7.09,17.30,-39.69
84650,"Sco","Scorpius","さそり",,,6.36,17.30,-32.55
84655,"Sco","Scorpius","さそり",,,9.27,17.30,-34.40
84666,"Sco","Scorpius","さそり",,,8.44,17.30,-38.79
84668,"Sco","Scorpius","さそり",,,8.14,17.30,-39.54
84673,"Sco","Scorpius","さそり",,,8.21,17.31,-36.08
84685,"Sco","Scorpius","さそり",,,7.69,17.31,-33.44
84687,"Sco","Scorpius","さそり",,,7.51,17.31,-42.89
84689,"Sco","Scorpius","さそり",,,9.44,17.31,-44.33
84690,"Sco","Scorpius","さそり",,,5.76,17.31,-44.12
84694,"Sco","Scorpius","さそり",,,8.38,17.31,-39.51
84709,"Sco","Scorpius","さそり",,,5.91,17.31,-34.98
84713,"Sco","Scorpius","さそり",,,7.81,17.31,-32.96
84716,"Sco","Scorpius","さそり",,,11.03,17.31,-38.81
84718,"Sco","Scorpius","さそり",,,8.99,17.31,-32.67
84721,"Sco","Scorpius","さそり",,,10.63,17.31,-40.87
84725,"Sco","Scorpius","さそり",,,9.09,17.31,-35.84
84734,"Sco","Scorpius","さそり",,,7.01,17.32,-31.36
84735,"Sco","Scorpius","さそり",,,8.73,17.32,-39.80
84745,"Sco","Scorpius","さそり",,,7.84,17.32,-38.00
84748,"Sco","Scorpius","さそり",,,6.64,17.32,-44.22
84749,"Sco","Scorpius","さそり",,,9.94,17.32,-37.10
84751,"Sco","Scorpius","さそり",,,9.42,17.32,-31.74
84754,"Sco","Scorpius","さそり",,,10.04,17.32,-44.08
84766,"Sco","Scorpius","さそり",,,9.32,17.32,-41.93
84771,"Sco","Scorpius","さそり",,,8.44,17.32,-41.87
84778,"Sco","Scorpius","さそり",,,8.78,17.32,-31.69
84806,"Sco","Scorpius","さそり",,,8.80,17.33,-30.42
84836,"Sco","Scorpius","さそり",,,8.74,17.33,-39.26
84842,"Sco","Scorpius","さそり",,,8.96,17.34,-41.18
84860,"Sco","Scorpius","さそり",,,8.47,17.34,-40.56
84863,"Sco","Scorpius","さそり",,,9.22,17.34,-36.68
84865,"Sco","Scorpius","さそり",,,7.20,17.34,-38.02
84876,"Sco","Scorpius","さそり",,,9.11,17.34,-40.38
84879,"Sco","Scorpius","さそり",,,8.05,17.34,-42.65
84881,"Sco","Scorpius","さそり",,,7.26,17.34,-45.42
84885,"Sco","Scorpius","さそり",,,8.50,17.34,-42.65
84891,"Sco","Scorpius","さそり",,,8.04,17.34,-32.82
84897,"Sco","Scorpius","さそり",,,8.71,17.35,-42.10
84908,"Sco","Scorpius","さそり",,,9.53,17.35,-34.36
84911,"Sco","Scorpius","さそり",,,8.75,17.35,-41.55
84929,"Sco","Scorpius","さそり",,,9.36,17.35,-34.36
84942,"Sco","Scorpius","さそり",,,8.22,17.35,-40.35
84952,"Sco","Scorpius","さそり",,,8.28,17.36,-35.34
84957,"Sco","Scorpius","さそり",,,9.84,17.36,-42.86
84966,"Sco","Scorpius","さそり",,,8.76,17.36,-33.41
84982,"Sco","Scorpius","さそり",,,7.19,17.36,-30.50
84987,"Sco","Scorpius","さそり",,,9.03,17.37,-31.65
84995,"Sco","Scorpius","さそり",,,8.28,17.37,-31.29
84998,"Sco","Scorpius","さそり",,,8.81,17.37,-44.74
84999,"Sco","Scorpius","さそり",,,8.02,17.37,-30.20
85004,"Sco","Scorpius","さそり",,,9.08,17.37,-40.09
85015,"Sco","Scorpius","さそり",,,8.01,17.37,-35.38
85019,"Sco","Scorpius","さそり",,,6.42,17.37,-35.91
85020,"Sco","Scorpius","さそり",,,6.33,17.37,-37.80
85022,"Sco","Scorpius","さそり",,,7.67,17.37,-38.20
85035,"Sco","Scorpius","さそり",,,6.68,17.37,-45.61
85036,"Sco","Scorpius","さそり",,,8.75,17.37,-37.65
85043,"Sco","Scorpius","さそり",,,9.81,17.38,-32.48
85046,"Sco","Scorpius","さそり",,,9.12,17.38,-33.81
85048,"Sco","Scorpius","さそり",,,5.91,17.38,-37.22
85056,"Sco","Scorpius","さそり",,,8.84,17.38,-33.20
85058,"Sco","Scorpius","さそり",,,9.71,17.38,-45.47
85075,"Sco","Scorpius","さそり",,,8.49,17.38,-44.79
85077,"Sco","Scorpius","さそり",,,8.48,17.38,-42.51
85082,"Sco","Scorpius","さそり",,,8.35,17.38,-33.81
85088,"Sco","Scorpius","さそり",,,9.75,17.39,-35.19
85094,"Sco","Scorpius","さそり",,,8.35,17.39,-37.07
85100,"Sco","Scorpius","さそり",,,7.76,17.39,-31.70
85114,"Sco","Scorpius","さそり",,,8.77,17.39,-40.20
85117,"Sco","Scorpius","さそり",,,9.57,17.39,-36.48
85126,"Sco","Scorpius","さそり",,,11.64,17.39,-32.25
85156,"Sco","Scorpius","さそり",,,10.14,17.40,-43.27
85158,"Sco","Scorpius","さそり",,,6.92,17.40,-34.79
85159,"Sco","Scorpius","さそり",,,8.11,17.40,-43.80
85162,"Sco","Scorpius","さそり",,,5.10,17.40,-44.16
85167,"Sco","Scorpius","さそり",,,10.14,17.40,-40.75
85168,"Sco","Scorpius","さそり",,,8.33,17.40,-43.99
85188,"Sco","Scorpius","さそり",,,8.84,17.40,-39.52
85192,"Sco","Scorpius","さそり",,,9.72,17.41,-36.03
85197,"Sco","Scorpius","さそり",,,9.31,17.41,-35.38
85206,"Sco","Scorpius","さそり",,,10.04,17.41,-41.34
85210,"Sco","Scorpius","さそり",,,8.17,17.41,-36.45
85211,"Sco","Scorpius","さそり",,,6.66,17.41,-45.00
85222,"Sco","Scorpius","さそり",,,7.79,17.41,-41.50
85237,"Sco","Scorpius","さそり",,,6.14,17.41,-34.69
85250,"Sco","Scorpius","さそり",,,6.79,17.42,-34.42
85265,"Sco","Scorpius","さそり",,,9.78,17.42,-42.45
85281,"Sco","Scorpius","さそり",,,9.95,17.42,-30.98
85284,"Sco","Scorpius","さそり",,,8.85,17.42,-41.33
85291,"Sco","Scorpius","さそり",,,8.18,17.42,-35.75
85293,"Sco","Scorpius","さそり",,,10.27,17.42,-41.42
85305,"Sco","Scorpius","さそり",,,8.78,17.43,-34.85
85314,"Sco","Scorpius","さそり",,,11.41,17.43,-44.94
85316,"Sco","Scorpius","さそり",,,8.47,17.43,-32.88
85319,"Sco","Scorpius","さそり",,,8.34,17.43,-37.60
85322,"Sco","Scorpius","さそり",,,8.79,17.43,-34.55
85329,"Sco","Scorpius","さそり",,,9.29,17.43,-31.64
85347,"Sco","Scorpius","さそり",,,9.95,17.44,-43.74
85352,"Sco","Scorpius","さそり",,,7.56,17.44,-37.11
85357,"Sco","Scorpius","さそり",,,7.88,17.44,-44.62
85359,"Sco","Scorpius","さそり",,,7.63,17.44,-38.32
85360,"Sco","Scorpius","さそり",,,8.03,17.44,-32.96
85364,"Sco","Scorpius","さそり",,,8.71,17.44,-38.16
85366,"Sco","Scorpius","さそり",,,10.47,17.44,-40.63
85367,"Sco","Scorpius","さそり",,,8.39,17.44,-43.09
85372,"Sco","Scorpius","さそり",,,7.63,17.44,-34.09
85375,"Sco","Scorpius","さそり",,,9.82,17.44,-33.81
85377,"Sco","Scorpius","さそり",,,8.88,17.44,-42.23
85383,"Sco","Scorpius","さそり",,,8.30,17.44,-32.58
85411,"Sco","Scorpius","さそり",,,9.40,17.45,-39.48
85422,"Sco","Scorpius","さそり",,,8.38,17.45,-32.54
85425,"Sco","Scorpius","さそり",,,7.88,17.45,-38.06
85438,"Sco","Scorpius","さそり",,,9.57,17.45,-35.09
85445,"Sco","Scorpius","さそり",,,6.67,17.46,-37.18
85468,"Sco","Scorpius","さそり",,,8.36,17.46,-42.40
85476,"Sco","Scorpius","さそり",,,7.56,17.46,-36.88
85478,"Sco","Scorpius","さそり",,,8.64,17.46,-38.07
85482,"Sco","Scorpius","さそり",,,7.73,17.46,-31.20
85485,"Sco","Scorpius","さそり",,,9.00,17.47,-45.50
85486,"Sco","Scorpius","さそり",,,9.78,17.47,-43.74
85488,"Sco","Scorpius","さそり",,,9.02,17.47,-34.61
85524,"Sco","Scorpius","さそり",,,7.60,17.47,-31.38
85531,"Sco","Scorpius","さそり",,,7.80,17.47,-30.93
85533,"Sco","Scorpius","さそり",,,10.45,17.47,-41.66
85536,"Sco","Scorpius","さそり",,,8.58,17.48,-42.54
85543,"Sco","Scorpius","さそり",,,5.98,17.48,-36.77
85544,"Sco","Scorpius","さそり",,,10.20,17.48,-44.59
85549,"Sco","Scorpius","さそり",,,6.30,17.48,-43.97
85552,"Sco","Scorpius","さそり",,,9.24,17.48,-42.61
85569,"Sco","Scorpius","さそり",,,6.99,17.48,-31.53
85574,"Sco","Scorpius","さそり",,,8.17,17.48,-40.74
85578,"Sco","Scorpius","さそり",,,7.97,17.48,-42.33
85583,"Sco","Scorpius","さそり",,,8.48,17.48,-38.64
85584,"Sco","Scorpius","さそり",,,8.41,17.48,-40.28
85587,"Sco","Scorpius","さそり",,,9.52,17.48,-36.90
85588,"Sco","Scorpius","さそり",,,8.52,17.49,-33.76
85589,"Sco","Scorpius","さそり",,,6.38,17.49,-38.51
85595,"Sco","Scorpius","さそり",,,8.44,17.49,-40.31
85627,"Sco","Scorpius","さそり",,,8.53,17.49,-39.70
85628,"Sco","Scorpius","さそり",,,7.53,17.49,-44.74
85633,"Sco","Scorpius","さそり",,,8.48,17.49,-43.55
85635,"Sco","Scorpius","さそり",,,8.41,17.50,-37.05
85641,"Sco","Scorpius","さそり",,,6.68,17.50,-33.71
85652,"Sco","Scorpius","さそり",,,8.19,17.50,-35.85
85660,"Sco","Scorpius","さそり",,,8.64,17.50,-34.48
85663,"Sco","Scorpius","さそり",,,8.73,17.50,-40.59
85673,"Sco","Scorpius","さそり",,,7.50,17.50,-43.75
85676,"Sco","Scorpius","さそり",,,8.28,17.50,-34.53
85677,"Sco","Scorpius","さそり",,,9.10,17.50,-32.92
85680,"Sco","Scorpius","さそり",,,8.49,17.50,-33.65
85682,"Sco","Scorpius","さそり",,,6.94,17.50,-43.22
85684,"Sco","Scorpius","さそり",,,8.49,17.50,-38.51
85685,"Sco","Scorpius","さそり",,,8.48,17.51,-43.06
85696,"Sco","Scorpius","さそり",,,2.70,17.51,-37.29
85698,"Sco","Scorpius","さそり",,,8.71,17.51,-40.87
85700,"Sco","Scorpius","さそり",,,6.89,17.51,-37.43
85701,"Sco","Scorpius","さそり",,,7.90,17.51,-33.60
85710,"Sco","Scorpius","さそり",,,8.47,17.51,-42.02
85738,"Sco","Scorpius","さそり",,,8.46,17.52,-39.97
85739,"Sco","Scorpius","さそり",,,9.58,17.52,-30.32
85745,"Sco","Scorpius","さそり",,,7.14,17.52,-39.01
85747,"Sco","Scorpius","さそり",,,7.93,17.52,-39.16
85748,"Sco","Scorpius","さそり",,,9.35,17.52,-45.01
85752,"Sco","Scorpius","さそり",,,8.09,17.52,-31.96
85763,"Sco","Scorpius","さそり",,,8.83,17.52,-41.92
85773,"Sco","Scorpius","さそり",,,8.75,17.52,-36.07
85774,"Sco","Scorpius","さそり",,,10.04,17.52,-40.60
85775,"Sco","Scorpius","さそり",,,8.30,17.52,-30.29
85780,"Sco","Scorpius","さそり",,,8.51,17.52,-45.54
85782,"Sco","Scorpius","さそり",,,7.19,17.52,-41.03
85786,"Sco","Scorpius","さそり",,,6.43,17.52,-33.70
85793,"Sco","Scorpius","さそり",,,8.80,17.53,-38.74
85797,"Sco","Scorpius","さそり",,,9.55,17.53,-31.51
85801,"Sco","Scorpius","さそり",,,8.54,17.53,-37.68
85803,"Sco","Scorpius","さそり",,,8.23,17.53,-30.40
85811,"Sco","Scorpius","さそり",,,8.34,17.53,-31.82
85816,"Sco","Scorpius","さそり",,,7.95,17.53,-31.54
85818,"Sco","Scorpius","さそり",,,9.05,17.53,-44.32
85827,"Sco","Scorpius","さそり",,,9.09,17.53,-44.37
85833,"Sco","Scorpius","さそり",,,7.86,17.53,-42.18
85839,"Sco","Scorpius","さそり",,,6.16,17.54,-34.27
85848,"Sco","Scorpius","さそり",,,9.44,17.54,-41.45
85851,"Sco","Scorpius","さそり",,,8.89,17.54,-35.00
85878,"Sco","Scorpius","さそり",,,9.23,17.55,-43.99
85885,"Sco","Scorpius","さそり",,,7.27,17.55,-33.05
85886,"Sco","Scorpius","さそり",,,8.23,17.55,-44.49
85889,"Sco","Scorpius","さそり",,,5.84,17.55,-41.17
85902,"Sco","Scorpius","さそり",,,7.07,17.55,-45.51
85903,"Sco","Scorpius","さそり",,,8.77,17.55,-43.22
85919,"Sco","Scorpius","さそり",,,7.35,17.55,-42.39
85927,"Sco","Scorpius","さそり","Shaula","シャウラ",1.62,17.56,-37.10
85931,"Sco","Scorpius","さそり",,,9.19,17.56,-35.76
85959,"Sco","Scorpius","さそり",,,8.07,17.56,-41.64
85961,"Sco","Scorpius","さそり",,,8.59,17.56,-31.06
85967,"Sco","Scorpius","さそり",,,7.00,17.56,-45.00
85972,"Sco","Scorpius","さそり",,,7.61,17.57,-35.73
85980,"Sco","Scorpius","さそり",,,7.14,17.57,-40.53
85985,"Sco","Scorpius","さそり",,,8.80,17.57,-32.50
85999,"Sco","Scorpius","さそり",,,9.15,17.57,-32.17
86001,"Sco","Scorpius","さそり",,,8.96,17.57,-33.66
86006,"Sco","Scorpius","さそり",,,8.75,17.57,-45.13
86010,"Sco","Scorpius","さそり",,,9.15,17.57,-40.76
86011,"Sco","Scorpius","さそり",,,5.69,17.57,-32.58
86014,"Sco","Scorpius","さそり",,,8.90,17.57,-36.30
86021,"Sco","Scorpius","さそり",,,8.76,17.57,-45.11
86025,"Sco","Scorpius","さそり",,,8.05,17.58,-34.90
86031,"Sco","Scorpius","さそり",,,8.05,17.58,-42.91
86035,"Sco","Scorpius","さそり",,,10.02,17.58,-32.67
86047,"Sco","Scorpius","さそり",,,6.76,17.58,-38.79
86051,"Sco","Scorpius","さそり",,,8.75,17.58,-38.62
86062,"Sco","Scorpius","さそり",,,10.16,17.58,-35.97
86071,"Sco","Scorpius","さそり",,,8.15,17.59,-36.50
86079,"Sco","Scorpius","さそり",,,7.90,17.59,-37.84
86091,"Sco","Scorpius","さそり",,,9.16,17.59,-41.51
86098,"Sco","Scorpius","さそり",,,6.48,17.59,-37.43
86115,"Sco","Scorpius","さそり",,,8.54,17.59,-33.84
86117,"Sco","Scorpius","さそり",,,7.78,17.59,-38.47
86119,"Sco","Scorpius","さそり",,,6.94,17.60,-38.10
86126,"Sco","Scorpius","さそり",,,8.37,17.60,-36.77
86140,"Sco","Scorpius","さそり",,,8.93,17.60,-30.54
86146,"Sco","Scorpius","さそり",,,8.37,17.60,-33.30
86156,"Sco","Scorpius","さそり",,,10.36,17.60,-41.20
86163,"Sco","Scorpius","さそり",,,10.01,17.60,-33.49
86170,"Sco","Scorpius","さそり",,,4.26,17.60,-38.63
86197,"Sco","Scorpius","さそり",,,11.15,17.61,-34.04
86203,"Sco","Scorpius","さそり",,,7.92,17.61,-39.66
86214,"Sco","Scorpius","さそり",,,10.94,17.61,-44.31
86223,"Sco","Scorpius","さそり",,,9.51,17.62,-31.38
86228,"Sco","Scorpius","さそり","Sargas","サルガス",1.86,17.62,-42.99
86230,"Sco","Scorpius","さそり",,,10.76,17.62,-40.31
86231,"Sco","Scorpius","さそり",,,7.78,17.62,-40.32
86236,"Sco","Scorpius","さそり",,,9.29,17.62,-41.70
86238,"Sco","Scorpius","さそり",,,8.29,17.62,-35.72
86244,"Sco","Scorpius","さそり",,,9.31,17.62,-32.18
86246,"Sco","Scorpius","さそり",,,6.26,17.62,-38.06
86250,"Sco","Scorpius","さそり",,,8.61,17.62,-44.15
86253,"Sco","Scorpius","さそり",,,8.16,17.62,-35.33
86256,"Sco","Scorpius","さそり",,,8.50,17.62,-34.64
86269,"Sco","Scorpius","さそり",,,7.27,17.62,-40.81
86285,"Sco","Scorpius","さそり",,,8.30,17.63,-30.90
86286,"Sco","Scorpius","さそり",,,6.68,17.63,-37.86
86289,"Sco","Scorpius","さそり",,,7.16,17.63,-42.56
86293,"Sco","Scorpius","さそり",,,9.16,17.63,-34.79
86294,"Sco","Scorpius","さそり",,,8.98,17.63,-39.18
86296,"Sco","Scorpius","さそり",,,9.23,17.63,-40.11
86309,"Sco","Scorpius","さそり",,,9.99,17.63,-36.23
86311,"Sco","Scorpius","さそり",,,6.09,17.63,-42.88
86322,"Sco","Scorpius","さそり",,,7.81,17.63,-32.87
86324,"Sco","Scorpius","さそり",,,9.81,17.63,-45.21
86342,"Sco","Scorpius","さそり",,,8.30,17.64,-33.05
86356,"Sco","Scorpius","さそり",,,7.90,17.64,-44.10
86360,"Sco","Scorpius","さそり",,,8.71,17.64,-30.13
86375,"Sco","Scorpius","さそり",,,7.24,17.64,-43.14
86397,"Sco","Scorpius","さそり",,,9.09,17.65,-41.73
86406,"Sco","Scorpius","さそり",,,7.83,17.65,-43.16
86408,"Sco","Scorpius","さそり",,,9.51,17.65,-30.81
86417,"Sco","Scorpius","さそり",,,9.10,17.65,-42.23
86418,"Sco","Scorpius","さそり",,,8.40,17.65,-37.36
86419,"Sco","Scorpius","さそり",,,7.41,17.65,-39.34
86425,"Sco","Scorpius","さそり",,,8.07,17.65,-39.78
86427,"Sco","Scorpius","さそり",,,8.22,17.65,-42.97
86429,"Sco","Scorpius","さそり",,,8.86,17.65,-38.39
86432,"Sco","Scorpius","さそり",,,7.16,17.66,-32.32
86434,"Sco","Scorpius","さそり",,,9.02,17.66,-36.26
86445,"Sco","Scorpius","さそり",,,8.08,17.66,-38.36
86451,"Sco","Scorpius","さそり",,,8.01,17.66,-40.27
86461,"Sco","Scorpius","さそり",,,9.60,17.66,-37.23
86464,"Sco","Scorpius","さそり",,,8.66,17.66,-45.13
86468,"Sco","Scorpius","さそり",,,6.74,17.66,-32.20
86474,"Sco","Scorpius","さそり",,,7.44,17.66,-39.20
86484,"Sco","Scorpius","さそり",,,8.31,17.67,-37.11
86489,"Sco","Scorpius","さそり",,,10.66,17.67,-43.86
86490,"Sco","Scorpius","さそり",,,8.30,17.67,-43.86
86491,"Sco","Scorpius","さそり",,,9.26,17.67,-40.50
86500,"Sco","Scorpius","さそり",,,7.66,17.67,-35.64
86502,"Sco","Scorpius","さそり",,,8.83,17.67,-35.36
86504,"Sco","Scorpius","さそり",,,9.44,17.67,-30.28
86508,"Sco","Scorpius","さそり",,,7.26,17.67,-32.15
86512,"Sco","Scorpius","さそり",,,11.52,17.68,-31.54
86527,"Sco","Scorpius","さそり",,,6.01,17.68,-32.21
86530,"Sco","Scorpius","さそり",,,8.58,17.68,-38.11
86535,"Sco","Scorpius","さそり",,,8.48,17.68,-34.89
86542,"Sco","Scorpius","さそり",,,11.00,17.68,-41.71
86545,"Sco","Scorpius","さそり",,,8.18,17.68,-33.96
86547,"Sco","Scorpius","さそり",,,8.53,17.68,-41.69
86548,"Sco","Scorpius","さそり",,,10.45,17.68,-41.68
86551,"Sco","Scorpius","さそり",,,7.80,17.68,-34.96
86557,"Sco","Scorpius","さそり",,,7.92,17.68,-40.97
86558,"Sco","Scorpius","さそり",,,8.60,17.68,-33.69
86571,"Sco","Scorpius","さそり",,,8.27,17.69,-44.45
86572,"Sco","Scorpius","さそり",,,7.51,17.69,-34.07
86580,"Sco","Scorpius","さそり",,,7.91,17.69,-32.11
86607,"Sco","Scorpius","さそり",,,8.70,17.69,-40.09
86615,"Sco","Scorpius","さそり",,,9.83,17.69,-44.02
86617,"Sco","Scorpius","さそり",,,9.13,17.69,-31.35
86624,"Sco","Scorpius","さそり",,,6.66,17.69,-33.50
86629,"Sco","Scorpius","さそり",,,8.75,17.70,-30.49
86650,"Sco","Scorpius","さそり",,,7.85,17.70,-32.52
86651,"Sco","Scorpius","さそり",,,8.63,17.70,-42.81
86653,"Sco","Scorpius","さそり",,,7.61,17.70,-35.80
86670,"Sco","Scorpius","さそり",,,2.39,17.70,-39.02
86682,"Sco","Scorpius","さそり",,,9.24,17.71,-34.82
86689,"Sco","Scorpius","さそり",,,8.37,17.71,-38.46
86693,"Sco","Scorpius","さそり",,,8.61,17.71,-45.27
86694,"Sco","Scorpius","さそり",,,8.72,17.71,-40.32
86698,"Sco","Scorpius","さそり",,,5.53,17.71,-36.94
86716,"Sco","Scorpius","さそり",,,6.44,17.71,-33.05
86718,"Sco","Scorpius","さそり",,,8.29,17.71,-44.76
86737,"Sco","Scorpius","さそり",,,6.92,17.72,-35.29
86744,"Sco","Scorpius","さそり",,,7.79,17.72,-30.17
86751,"Sco","Scorpius","さそり",,,6.65,17.72,-32.66
86752,"Sco","Scorpius","さそり",,,7.71,17.72,-34.08
86762,"Sco","Scorpius","さそり",,,8.03,17.72,-38.19
86767,"Sco","Scorpius","さそり",,,9.70,17.72,-42.15
86788,"Sco","Scorpius","さそり",,,8.24,17.73,-44.63
86792,"Sco","Scorpius","さそり",,,6.74,17.73,-38.80
86799,"Sco","Scorpius","さそり",,,7.86,17.73,-41.66
86800,"Sco","Scorpius","さそり",,,9.16,17.73,-38.27
86801,"Sco","Scorpius","さそり",,,9.47,17.73,-41.27
86802,"Sco","Scorpius","さそり",,,7.94,17.73,-34.77
86810,"Sco","Scorpius","さそり",,,8.53,17.73,-40.11
86844,"Sco","Scorpius","さそり",,,9.85,17.74,-44.24
86847,"Sco","Scorpius","さそり",,,5.87,17.74,-42.72
86853,"Sco","Scorpius","さそり",,,8.60,17.74,-39.84
86880,"Sco","Scorpius","さそり",,,7.05,17.75,-35.53
86883,"Sco","Scorpius","さそり",,,9.07,17.75,-30.18
86887,"Sco","Scorpius","さそり",,,8.96,17.75,-33.82
86889,"Sco","Scorpius","さそり",,,8.76,17.75,-37.34
86892,"Sco","Scorpius","さそり",,,9.47,17.75,-33.31
86903,"Sco","Scorpius","さそり",,,8.56,17.75,-37.49
86905,"Sco","Scorpius","さそり",,,7.90,17.75,-43.60
86914,"Sco","Scorpius","さそり",,,9.24,17.75,-40.80
86915,"Sco","Scorpius","さそり",,,8.86,17.75,-30.98
86922,"Sco","Scorpius","さそり",,,9.57,17.76,-36.70
86947,"Sco","Scorpius","さそり",,,9.27,17.76,-34.58
86951,"Sco","Scorpius","さそり",,,8.46,17.76,-36.65
86953,"Sco","Scorpius","さそり",,,9.38,17.76,-32.40
86956,"Sco","Scorpius","さそり",,,8.74,17.76,-44.60
86961,"Sco","Scorpius","さそり",,,10.49,17.77,-32.10
86963,"Sco","Scorpius","さそり",,,11.39,17.77,-32.10
86965,"Sco","Scorpius","さそり",,,8.55,17.77,-40.72
86967,"Sco","Scorpius","さそり",,,9.45,17.77,-33.77
86968,"Sco","Scorpius","さそり",,,8.51,17.77,-39.11
86976,"Sco","Scorpius","さそり",,,7.51,17.77,-34.88
86983,"Sco","Scorpius","さそり",,,7.07,17.77,-39.26
87008,"Sco","Scorpius","さそり",,,10.08,17.77,-42.62
87022,"Sco","Scorpius","さそり",,,10.72,17.78,-31.58
87023,"Sco","Scorpius","さそり",,,7.62,17.78,-41.28
87029,"Sco","Scorpius","さそり",,,10.40,17.78,-43.49
87030,"Sco","Scorpius","さそり",,,8.31,17.78,-32.41
87031,"Sco","Scorpius","さそり",,,9.71,17.78,-43.93
87033,"Sco","Scorpius","さそり",,,7.64,17.78,-43.49
87040,"Sco","Scorpius","さそり",,,7.91,17.78,-40.85
87042,"Sco","Scorpius","さそり",,,6.41,17.78,-38.11
87046,"Sco","Scorpius","さそり",,,9.31,17.78,-43.01
87054,"Sco","Scorpius","さそり",,,8.63,17.78,-42.02
87063,"Sco","Scorpius","さそり",,,7.66,17.79,-35.70
87066,"Sco","Scorpius","さそり",,,9.25,17.79,-43.41
87067,"Sco","Scorpius","さそり",,,9.02,17.79,-37.84
87073,"Sco","Scorpius","さそり",,,2.99,17.79,-40.12
87078,"Sco","Scorpius","さそり",,,8.38,17.79,-38.36
87085,"Sco","Scorpius","さそり",,,7.59,17.79,-35.22
87102,"Sco","Scorpius","さそり",,,6.94,17.79,-34.31
87104,"Sco","Scorpius","さそり",,,8.29,17.79,-44.54
87116,"Sco","Scorpius","さそり",,,7.20,17.79,-34.01
87121,"Sco","Scorpius","さそり",,,9.70,17.80,-37.17
87125,"Sco","Scorpius","さそり",,,8.17,17.80,-43.44
87134,"Sco","Scorpius","さそり",,,7.78,17.80,-34.58
87139,"Sco","Scorpius","さそり",,,8.40,17.80,-36.73
87140,"Sco","Scorpius","さそり",,,7.10,17.80,-35.89
87144,"Sco","Scorpius","さそり",,,7.36,17.80,-32.67
87148,"Sco","Scorpius","さそり",,,9.10,17.80,-42.70
87155,"Sco","Scorpius","さそり",,,8.53,17.80,-35.97
87162,"Sco","Scorpius","さそり",,,7.99,17.80,-30.29
87164,"Sco","Scorpius","さそり",,,7.20,17.80,-38.13
87171,"Sco","Scorpius","さそり",,,8.48,17.81,-45.02
87173,"Sco","Scorpius","さそり",,,8.70,17.81,-30.47
87181,"Sco","Scorpius","さそり",,,6.98,17.81,-39.89
87191,"Sco","Scorpius","さそり",,,7.51,17.81,-35.05
87195,"Sco","Scorpius","さそり",,,9.04,17.81,-40.30
87196,"Sco","Scorpius","さそり",,,8.65,17.81,-33.86
87198,"Sco","Scorpius","さそり",,,8.42,17.81,-39.43
87218,"Sco","Scorpius","さそり",,,8.40,17.81,-36.52
87220,"Sco","Scorpius","さそり",,,4.79,17.81,-31.70
87221,"Sco","Scorpius","さそり",,,9.84,17.81,-33.25
87223,"Sco","Scorpius","さそり",,,6.65,17.82,-30.59
87230,"Sco","Scorpius","さそり",,,9.03,17.82,-34.09
87232,"Sco","Scorpius","さそり",,,7.01,17.82,-38.98
87240,"Sco","Scorpius","さそり",,,7.34,17.82,-35.37
87253,"Sco","Scorpius","さそり",,,10.17,17.82,-43.57
87255,"Sco","Scorpius","さそり",,,8.20,17.82,-42.60
87257,"Sco","Scorpius","さそり",,,7.57,17.82,-41.44
87261,"Sco","Scorpius","さそり",,,3.19,17.83,-37.04
87277,"Sco","Scorpius","さそり",,,7.94,17.83,-41.37
87279,"Sco","Scorpius","さそり",,,9.15,17.83,-42.63
87294,"Sco","Scorpius","さそり",,,4.78,17.83,-40.09
87298,"Sco","Scorpius","さそり",,,8.34,17.83,-41.44
87301,"Sco","Scorpius","さそり",,,8.74,17.83,-39.79
87307,"Sco","Scorpius","さそり",,,9.69,17.83,-41.51
87330,"Sco","Scorpius","さそり",,,9.10,17.84,-40.31
87336,"Sco","Scorpius","さそり",,,7.82,17.84,-35.53
87337,"Sco","Scorpius","さそり",,,8.60,17.84,-42.46
87344,"Sco","Scorpius","さそり",,,6.69,17.84,-42.33
87345,"Sco","Scorpius","さそり",,,8.00,17.84,-33.70
87348,"Sco","Scorpius","さそり",,,10.25,17.84,-44.11
87360,"Sco","Scorpius","さそり",,,7.60,17.85,-35.07
87361,"Sco","Scorpius","さそり",,,8.42,17.85,-32.98
87364,"Sco","Scorpius","さそり",,,8.19,17.85,-30.97
87368,"Sco","Scorpius","さそり",,,9.25,17.85,-32.30
87372,"Sco","Scorpius","さそり",,,9.35,17.85,-38.15
87380,"Sco","Scorpius","さそり",,,8.09,17.85,-30.55
87381,"Sco","Scorpius","さそり",,,6.70,17.85,-30.55
87383,"Sco","Scorpius","さそり",,,8.49,17.85,-35.89
87387,"Sco","Scorpius","さそり",,,8.40,17.85,-37.44
87390,"Sco","Scorpius","さそり",,,5.94,17.85,-40.77
87391,"Sco","Scorpius","さそり",,,8.86,17.85,-30.28
87395,"Sco","Scorpius","さそり",,,7.79,17.85,-31.41
87412,"Sco","Scorpius","さそり",,,9.14,17.86,-44.33
87438,"Sco","Scorpius","さそり",,,9.32,17.86,-32.05
87443,"Sco","Scorpius","さそり",,,8.69,17.86,-38.25
87452,"Sco","Scorpius","さそり",,,8.03,17.86,-43.20
87456,"Sco","Scorpius","さそり",,,8.71,17.86,-30.15
87460,"Sco","Scorpius","さそり",,,5.88,17.87,-34.79
87466,"Sco","Scorpius","さそり",,,6.97,17.87,-31.32
87472,"Sco","Scorpius","さそり",,,5.84,17.87,-34.41
87498,"Sco","Scorpius","さそり",,,11.21,17.87,-30.25
87505,"Sco","Scorpius","さそり",,,7.76,17.87,-38.64
87508,"Sco","Scorpius","さそり",,,8.58,17.87,-31.63
87509,"Sco","Scorpius","さそり",,,10.04,17.87,-36.25
87516,"Sco","Scorpius","さそり",,,6.05,17.88,-34.11
87523,"Sco","Scorpius","さそり",,,6.19,17.88,-41.99
87529,"Sco","Scorpius","さそり",,,6.55,17.88,-35.01
87532,"Sco","Scorpius","さそり",,,6.03,17.88,-35.62
87543,"Sco","Scorpius","さそり",,,10.22,17.88,-43.56
87554,"Sco","Scorpius","さそり",,,9.16,17.88,-42.24
87555,"Sco","Scorpius","さそり",,,6.79,17.88,-32.03
87560,"Sco","Scorpius","さそり",,,6.96,17.88,-34.62
87567,"Sco","Scorpius","さそり",,,6.14,17.88,-34.73
87569,"Sco","Scorpius","さそり",,,5.58,17.88,-34.89
87580,"Sco","Scorpius","さそり",,,7.98,17.89,-36.50
87587,"Sco","Scorpius","さそり",,,9.04,17.89,-42.00
87599,"Sco","Scorpius","さそり",,,7.46,17.89,-43.71
87607,"Sco","Scorpius","さそり",,,11.19,17.89,-44.28
87611,"Sco","Scorpius","さそり",,,7.91,17.89,-41.17
87613,"Sco","Scorpius","さそり",,,8.36,17.89,-32.47
87616,"Sco","Scorpius","さそり",,,6.00,17.89,-34.75
87624,"Sco","Scorpius","さそり",,,6.41,17.89,-34.83
87646,"Sco","Scorpius","さそり",,,9.41,17.90,-42.71
87651,"Sco","Scorpius","さそり",,,9.12,17.90,-40.42
87656,"Sco","Scorpius","さそり",,,6.88,17.90,-34.72
87657,"Sco","Scorpius","さそり",,,8.83,17.90,-31.26
87658,"Sco","Scorpius","さそり",,,11.13,17.90,-41.59
87664,"Sco","Scorpius","さそり",,,8.48,17.90,-33.61
87665,"Sco","Scorpius","さそり",,,7.18,17.90,-38.62
87671,"Sco","Scorpius","さそり",,,6.10,17.90,-34.46
87672,"Sco","Scorpius","さそり",,,8.02,17.90,-37.45
87686,"Sco","Scorpius","さそり",,,7.81,17.91,-33.95
87688,"Sco","Scorpius","さそり",,,8.14,17.91,-40.25
87689,"Sco","Scorpius","さそり",,,8.79,17.91,-40.34
87698,"Sco","Scorpius","さそり",,,6.95,17.91,-34.54
87699,"Sco","Scorpius","さそり",,,8.27,17.91,-42.92
87700,"Sco","Scorpius","さそり",,,9.32,17.91,-32.11
87711,"Sco","Scorpius","さそり",,,7.55,17.91,-43.15
87722,"Sco","Scorpius","さそり",,,6.05,17.91,-36.47
87731,"Sco","Scorpius","さそり",,,9.09,17.92,-39.56
87733,"Sco","Scorpius","さそり",,,8.32,17.92,-30.60
87755,"Sco","Scorpius","さそり",,,10.73,17.92,-41.40
87756,"Sco","Scorpius","さそり",,,8.90,17.92,-30.68
87767,"Sco","Scorpius","さそり",,,7.82,17.92,-44.93
87771,"Sco","Scorpius","さそり",,,7.92,17.93,-39.34
87776,"Sco","Scorpius","さそり",,,9.46,17.93,-37.15
87785,"Sco","Scorpius","さそり",,,7.96,17.93,-34.28
87791,"Sco","Scorpius","さそり",,,8.79,17.93,-33.62
87794,"Sco","Scorpius","さそり",,,6.78,17.93,-42.32
87798,"Sco","Scorpius","さそり",,,6.74,17.93,-35.04
87810,"Sco","Scorpius","さそり",,,6.59,17.93,-32.47
87839,"Sco","Scorpius","さそり",,,8.72,17.94,-31.52
87844,"Sco","Scorpius","さそり",,,7.70,17.94,-35.20
87846,"Sco","Scorpius","さそり",,,4.85,17.94,-44.34
87848,"Sco","Scorpius","さそり",,,7.72,17.94,-40.38
87853,"Sco","Scorpius","さそり",,,6.68,17.94,-32.68
87854,"Sco","Scorpius","さそり",,,7.28,17.94,-39.93
87855,"Sco","Scorpius","さそり",,,8.84,17.94,-36.66
87856,"Sco","Scorpius","さそり",,,8.82,17.94,-38.53
87865,"Sco","Scorpius","さそり",,,6.46,17.94,-40.30
87870,"Sco","Scorpius","さそり",,,8.81,17.94,-36.27
87874,"Sco","Scorpius","さそり",,,9.84,17.95,-35.68
87885,"Sco","Scorpius","さそり",,,8.77,17.95,-34.25
87886,"Sco","Scorpius","さそり",,,6.74,17.95,-41.97
87897,"Sco","Scorpius","さそり",,,7.60,17.95,-38.78
87904,"Sco","Scorpius","さそり",,,8.40,17.95,-38.90
87922,"Sco","Scorpius","さそり",,,11.44,17.96,-40.55
87923,"Sco","Scorpius","さそり",,,9.38,17.96,-35.97
87924,"Sco","Scorpius","さそり",,,6.65,17.96,-39.10
87936,"Sco","Scorpius","さそり",,,4.88,17.96,-41.71
87945,"Sco","Scorpius","さそり",,,6.76,17.96,-36.00
87947,"Sco","Scorpius","さそり",,,8.27,17.96,-44.79
87948,"Sco","Scorpius","さそり",,,6.28,17.96,-39.13
87957,"Sco","Scorpius","さそり",,,7.78,17.96,-45.45
87962,"Sco","Scorpius","さそり",,,11.29,17.96,-43.40
87966,"Sco","Scorpius","さそり",,,9.24,17.96,-31.53
87973,"Sco","Scorpius","さそり",,,7.65,17.96,-37.33
87977,"Sco","Scorpius","さそり",,,10.09,17.97,-41.38
87978,"Sco","Scorpius","さそり",,,8.76,17.97,-38.17
87996,"Sco","Scorpius","さそり",,,8.70,17.97,-44.97
88004,"Sco","Scorpius","さそり",,,8.41,17.97,-42.48
88023,"Sco","Scorpius","さそり",,,8.14,17.97,-42.72
